<svg width="220" height="200" viewBox="0 0 220 200" fill="none" xmlns="http://www.w3.org/2000/svg">
<rect x="1" y="1" width="218" height="198" rx="19" stroke="url(#paint0_linear)" stroke-width="2"/>
<defs>
<linearGradient id="paint0_linear" x1="-22" y1="-2.4882e-06" x2="231" y2="200" gradientUnits="userSpaceOnUse">
<stop stop-color="#FC2C38"/>
<stop offset="1" stop-color="#FC2C38" stop-opacity="0.4"/>
</linearGradient>
</defs>
</svg>
