<svg width="32" height="32" viewBox="0 0 32 32" fill="none" xmlns="http://www.w3.org/2000/svg">
<rect width="32" height="32" rx="16" fill="#AFAFAF"/>
<path fill-rule="evenodd" clip-rule="evenodd" d="M17.0537 20.6272C17.02 20.37 17.1883 19.0723 17.1883 19.0723C17.1883 19.0723 17.5136 19.1282 17.8166 19.1618C18.1307 19.1954 18.6243 19.2177 18.6243 19.2177C18.6243 19.2177 18.3551 20.1798 18.5121 20.4035C18.8711 20.9181 20.8457 22.171 21.3056 22.6856C21.53 22.9093 21.7656 23.133 22.0461 23.3232C22.248 23.491 22.8875 23.5134 23.0558 23.6812C23.168 23.8042 23.3026 24.1622 23.2353 24.2182C23.1904 24.2629 22.2144 24.2853 22.0349 24.2517C21.8441 24.2517 21.6198 24.0727 21.6198 24.0727C21.6198 24.0727 21.4851 24.2182 21.2832 24.1175C20.9466 23.9497 20.9915 23.6029 20.8008 23.3232C20.6886 23.2114 19.0282 22.1263 17.9624 21.5222C17.0537 21.0188 17.0985 21.03 17.0537 20.6272ZM10.4569 17.2936C10.255 17.1146 9.52577 17.7411 9.31261 17.6963C9.09945 17.6516 9.31261 17.137 9.12189 17.1706C8.87508 17.2153 8.80776 17.797 8.57216 17.8418C8.21316 17.976 8 17.439 8 16.7902C8 16.1414 8.2356 15.4366 9.02092 14.978C9.80625 14.5193 10.9842 14.4075 11.893 14.7095C12.7568 14.2509 13.8899 12.9196 16.4142 12.8525C18.9384 12.7854 19.8921 14.0495 20.4306 13.7475C20.9691 13.4454 21.1486 12.7742 21.0364 12.2596C20.812 11.2864 20.3745 10.7606 20.0267 9.89926C19.8135 9.3623 19.7911 8.64635 20.0716 8.12058C20.195 7.88566 20.4979 7.61718 20.9466 7.56125C21.3954 7.50531 21.5188 7.88566 21.8329 7.98634C22.1471 8.08702 22.8202 8.15414 22.8763 8.38906C22.9324 8.62398 22.1134 8.81415 21.9339 8.79178C21.5076 8.74703 21.2271 9.03788 21.2495 9.54128C21.272 10.1901 21.429 10.4138 22.0349 11.3423C22.6295 12.2596 22.6295 13.7922 21.8666 14.8661C21.6198 15.1793 21.3729 15.4478 21.1934 15.7946C21.0588 16.0855 21.1934 15.5038 21.1934 16.6448C21.1934 17.7858 20.6101 18.334 19.8584 18.5801C18.8375 18.9045 17.9624 18.7814 17.0649 18.6808C15.8196 18.5353 14.8435 18.5465 14.3387 18.6808C13.9011 18.7926 12.5212 19.5645 12.3529 19.9225C12.2632 20.1127 11.7808 22.1374 11.691 22.5849C11.6574 22.7639 11.6798 23.133 11.5901 23.2897C11.5003 23.4686 10.3672 24.1846 9.97453 24.33C9.79503 24.3971 9.43602 24.4866 9.39115 24.4195C9.14433 24.1287 9.14433 24.0615 9.87356 23.547C9.61552 23.0212 10.356 22.8981 10.5691 22.6297C10.8047 22.35 11.231 19.2848 11.3769 18.8821C11.5227 18.4794 12.0949 18.3452 12.3305 17.9872C12.2183 17.8641 12.0725 17.9313 11.6686 18.0431C11.3208 18.1438 10.6028 18.3899 10.4457 18.2669C10.2999 18.155 10.6477 17.4726 10.4569 17.2936Z" fill="white"/>
</svg>
