<svg width="40" height="40" viewBox="0 0 40 40" fill="none" xmlns="http://www.w3.org/2000/svg">
<rect width="40" height="40" rx="20" fill="#FC2C38"/>
<path d="M23.6044 20C23.6044 21.9868 21.9822 23.6095 19.996 23.6095C18.0099 23.6095 16.3877 21.9868 16.3877 20C16.3877 18.0132 18.0099 16.3905 19.996 16.3905C21.9901 16.3905 23.6044 18.0132 23.6044 20ZM19.996 8C13.3808 8 8 13.3826 8 20C8 26.6174 13.3808 32 19.996 32C22.4174 32 24.7517 31.2797 26.7537 29.9103L26.7854 29.8865L25.1711 28.0106L25.1474 28.0264C23.6123 29.0158 21.8318 29.5383 19.996 29.5383C14.7418 29.5383 10.4609 25.2559 10.4609 20C10.4609 14.7441 14.7418 10.4617 19.996 10.4617C25.2502 10.4617 29.5312 14.7441 29.5312 20C29.5312 20.6807 29.452 21.3694 29.3096 22.0501C29.0089 23.285 28.1385 23.6649 27.4896 23.6174C26.8328 23.562 26.0732 23.095 26.0653 21.9551V20C26.0653 16.6517 23.3432 13.9288 19.996 13.9288C16.6489 13.9288 13.9347 16.6517 13.9347 20C13.9347 23.3483 16.6568 26.0712 20.004 26.0712C21.6261 26.0712 23.1533 25.438 24.3007 24.2823C24.9654 25.3193 26.0574 25.9763 27.2997 26.0712C27.4026 26.0792 27.5134 26.0871 27.6241 26.0871C28.4946 26.0871 29.365 25.7942 30.0613 25.2638C30.7814 24.7177 31.3195 23.9261 31.6123 22.9763C31.6597 22.8259 31.7468 22.4697 31.7468 22.4697V22.4538C31.9209 21.6939 32 20.934 32 20C31.9921 13.3826 26.6113 8 19.996 8Z" fill="white"/>
</svg>
