<svg width="26" height="26" viewBox="0 0 26 26" fill="none" xmlns="http://www.w3.org/2000/svg">
<rect width="26" height="26" rx="6" fill="white"/>
<rect x="0.405855" y="0.405855" width="25.1883" height="25.1883" rx="5.59414" stroke="#00103D" stroke-opacity="0.12" stroke-width="0.81171"/>
<path d="M20.4284 13.0001C20.4284 15.5537 19.2213 16.7608 17.7356 16.7608C16.8534 16.7608 16.1106 16.2965 15.6927 15.6465C14.9963 16.2965 14.0213 16.7144 12.9999 16.7144C10.957 16.7144 9.28557 15.043 9.28557 13.0001C9.28557 10.9572 10.957 9.28582 12.9999 9.28582C15.0427 9.28582 16.7141 10.9572 16.7141 13.0001V14.2072C16.7141 14.8108 17.132 15.2751 17.6891 15.2751C18.3391 15.2751 18.8963 14.718 18.8963 13.0001C18.9427 9.70368 16.2499 7.05725 12.9999 7.05725C9.74986 7.05725 7.057 9.70368 7.057 13.0001C7.057 16.2501 9.70343 18.943 12.9999 18.943C14.9034 18.943 16.2034 18.0144 16.2034 18.0144L17.1784 19.1287C17.1784 19.1287 15.507 20.4287 12.9999 20.4287C8.91415 20.4287 5.57129 17.0858 5.57129 13.0001C5.57129 8.91439 8.91415 5.57153 12.9999 5.57153C17.0856 5.57153 20.4284 8.91439 20.4284 13.0001ZM12.9999 15.2287C14.2534 15.2287 15.2749 14.2072 15.2749 12.9537C15.2749 11.7001 14.2534 10.6787 12.9999 10.6787C11.7463 10.6787 10.7249 11.7001 10.7249 12.9537C10.7249 14.2072 11.7463 15.2287 12.9999 15.2287Z" fill="#FC2C38"/>
</svg>
