<svg width="62" height="62" viewBox="0 0 62 62" fill="none" xmlns="http://www.w3.org/2000/svg">
<rect x="0.294922" y="0.901855" width="60.9188" height="60.9188" rx="14.5045" fill="#1CC585"/>
<g filter="url(#filter0_i)">
<path fill-rule="evenodd" clip-rule="evenodd" d="M30.3195 43.7278H19.6499C16.1161 43.7278 13.248 40.8598 13.248 37.326V24.5224C13.248 20.9886 16.1161 18.1206 19.6499 18.1206H30.3195C33.8533 18.1206 36.7213 20.9886 36.7213 24.5224V26.524L43.8807 20.7581C44.2541 20.4445 44.7343 20.2545 45.2571 20.2545C46.435 20.2545 47.391 21.2105 47.391 22.3885V39.46C47.391 40.6379 46.435 41.5939 45.2571 41.5939C44.7172 41.5939 44.2221 41.3933 43.8465 41.0604L36.7213 35.3223V37.326C36.7213 40.8598 33.8533 43.7278 30.3195 43.7278ZM19.6499 35.1919C20.8278 35.1919 21.7838 36.1479 21.7838 37.3258C21.7838 38.5037 20.8278 39.4598 19.6499 39.4598C18.4719 39.4598 17.5159 38.5037 17.5159 37.3258C17.5159 36.1479 18.4719 35.1919 19.6499 35.1919Z" fill="white"/>
<path fill-rule="evenodd" clip-rule="evenodd" d="M30.3195 43.7278H19.6499C16.1161 43.7278 13.248 40.8598 13.248 37.326V24.5224C13.248 20.9886 16.1161 18.1206 19.6499 18.1206H30.3195C33.8533 18.1206 36.7213 20.9886 36.7213 24.5224V26.524L43.8807 20.7581C44.2541 20.4445 44.7343 20.2545 45.2571 20.2545C46.435 20.2545 47.391 21.2105 47.391 22.3885V39.46C47.391 40.6379 46.435 41.5939 45.2571 41.5939C44.7172 41.5939 44.2221 41.3933 43.8465 41.0604L36.7213 35.3223V37.326C36.7213 40.8598 33.8533 43.7278 30.3195 43.7278ZM19.6499 35.1919C20.8278 35.1919 21.7838 36.1479 21.7838 37.3258C21.7838 38.5037 20.8278 39.4598 19.6499 39.4598C18.4719 39.4598 17.5159 38.5037 17.5159 37.3258C17.5159 36.1479 18.4719 35.1919 19.6499 35.1919Z" fill="url(#paint0_linear)"/>
<path fill-rule="evenodd" clip-rule="evenodd" d="M30.3195 43.7278H19.6499C16.1161 43.7278 13.248 40.8598 13.248 37.326V24.5224C13.248 20.9886 16.1161 18.1206 19.6499 18.1206H30.3195C33.8533 18.1206 36.7213 20.9886 36.7213 24.5224V26.524L43.8807 20.7581C44.2541 20.4445 44.7343 20.2545 45.2571 20.2545C46.435 20.2545 47.391 21.2105 47.391 22.3885V39.46C47.391 40.6379 46.435 41.5939 45.2571 41.5939C44.7172 41.5939 44.2221 41.3933 43.8465 41.0604L36.7213 35.3223V37.326C36.7213 40.8598 33.8533 43.7278 30.3195 43.7278ZM19.6499 35.1919C20.8278 35.1919 21.7838 36.1479 21.7838 37.3258C21.7838 38.5037 20.8278 39.4598 19.6499 39.4598C18.4719 39.4598 17.5159 38.5037 17.5159 37.3258C17.5159 36.1479 18.4719 35.1919 19.6499 35.1919Z" fill="white" fill-opacity="0.88"/>
</g>
<defs>
<filter id="filter0_i" x="13.248" y="18.1206" width="34.143" height="26.1959" filterUnits="userSpaceOnUse" color-interpolation-filters="sRGB">
<feFlood flood-opacity="0" result="BackgroundImageFix"/>
<feBlend mode="normal" in="SourceGraphic" in2="BackgroundImageFix" result="shape"/>
<feColorMatrix in="SourceAlpha" type="matrix" values="0 0 0 0 0 0 0 0 0 0 0 0 0 0 0 0 0 0 127 0" result="hardAlpha"/>
<feOffset dy="1.17734"/>
<feGaussianBlur stdDeviation="0.294336"/>
<feComposite in2="hardAlpha" operator="arithmetic" k2="-1" k3="1"/>
<feColorMatrix type="matrix" values="0 0 0 0 1 0 0 0 0 1 0 0 0 0 1 0 0 0 0.8 0"/>
<feBlend mode="normal" in2="shape" result="effect1_innerShadow"/>
</filter>
<linearGradient id="paint0_linear" x1="30.3195" y1="18.1206" x2="30.3195" y2="43.7278" gradientUnits="userSpaceOnUse">
<stop stop-color="#2144FE" stop-opacity="0.13"/>
<stop offset="1" stop-color="#2144FE" stop-opacity="0.24"/>
</linearGradient>
</defs>
</svg>
