<svg width="26" height="26" viewBox="0 0 26 26" fill="none" xmlns="http://www.w3.org/2000/svg">
<rect width="26" height="26" rx="6" fill="white"/>
<rect x="0.405855" y="0.405855" width="25.1883" height="25.1883" rx="5.59414" stroke="#00103D" stroke-opacity="0.12" stroke-width="0.81171"/>
<path d="M6.74607 14.6202L9.2081 6.22488C9.47663 5.30922 10.3166 4.68018 11.2709 4.68018C12.7051 4.68018 13.7371 6.05804 13.3337 7.43441L13.2462 7.73328C13.2406 7.75216 13.2334 7.77048 13.2244 7.78802C13.2155 7.80562 13.2082 7.82402 13.2027 7.84297L11.1275 14.9406C10.98 15.4449 11.3583 15.9496 11.8837 15.9496C12.4418 15.9496 12.8229 16.5141 12.6143 17.0317C12.2231 18.0021 11.873 18.8682 11.5638 19.6308C11.1503 20.6508 10.1302 21.3845 9.07456 21.0728C6.46041 20.3007 5.80389 17.8201 6.63877 14.9723L6.74607 14.6202ZM10.9756 21.3202C10.9417 21.3202 10.922 21.2821 10.9415 21.2544L15.5472 14.73C15.8618 14.2844 15.5431 13.6693 14.9976 13.6693C14.5201 13.6693 14.1946 13.1856 14.3745 12.7432L15.323 10.4105C15.7194 9.43567 16.7405 8.78093 17.7097 9.19086C19.9191 10.1253 20.8405 12.3653 20.0694 14.9723C19.059 18.4148 14.9636 21.3202 10.9756 21.3202Z" fill="url(#paint0_linear)"/>
<defs>
<linearGradient id="paint0_linear" x1="15.7569" y1="6.84311" x2="10.1528" y2="26.2532" gradientUnits="userSpaceOnUse">
<stop stop-color="#EB7218"/>
<stop offset="0.0518954" stop-color="#EB6E19"/>
<stop offset="0.3551" stop-color="#EA5D1D"/>
<stop offset="0.6673" stop-color="#E9521F"/>
<stop offset="1" stop-color="#E94E1F"/>
</linearGradient>
</defs>
</svg>
