<svg width="26" height="26" viewBox="0 0 26 26" fill="none" xmlns="http://www.w3.org/2000/svg">
<rect width="26" height="26" rx="6" fill="#FE6392"/>
<path fill-rule="evenodd" clip-rule="evenodd" d="M7.09047 7.09071C7.86568 6.31361 8.78679 5.69732 9.80089 5.27723C10.815 4.85715 11.9021 4.64155 12.9997 4.64283C14.0974 4.64155 15.1845 4.85715 16.1986 5.27723C17.2127 5.69732 18.1338 6.31361 18.909 7.09071C19.6861 7.86593 20.3024 8.78704 20.7225 9.80113C21.1426 10.8152 21.3582 11.9023 21.3569 13C21.3582 14.0976 21.1426 15.1847 20.7225 16.1988C20.3024 17.2129 19.6861 18.134 18.909 18.9092C18.1338 19.6863 17.2127 20.3026 16.1986 20.7227C15.1845 21.1428 14.0974 21.3584 12.9997 21.3571C11.9021 21.3584 10.815 21.1428 9.80089 20.7227C8.78679 20.3026 7.86568 19.6863 7.09047 18.9092C6.31336 18.134 5.69707 17.2129 5.27699 16.1988C4.85691 15.1847 4.64131 14.0976 4.64258 13C4.64131 11.9023 4.85691 10.8152 5.27699 9.80113C5.69707 8.78704 6.31336 7.86593 7.09047 7.09071ZM12.9997 6.03558C12.085 6.03432 11.179 6.21388 10.3338 6.56393C9.48868 6.91398 8.72106 7.42763 8.07509 8.07534C7.42738 8.7213 6.91374 9.48892 6.56368 10.3341C6.21363 11.1792 6.03408 12.0852 6.03534 13C6.03408 13.9147 6.21363 14.8207 6.56368 15.6659C6.91374 16.511 7.42738 17.2786 8.07509 17.9246C8.72106 18.5723 9.48868 19.086 10.3338 19.436C11.179 19.7861 12.085 19.9656 12.9997 19.9644C13.9145 19.9656 14.8205 19.7861 15.6656 19.436C16.5108 19.086 17.2784 18.5723 17.9244 17.9246C18.5721 17.2786 19.0857 16.511 19.4358 15.6659C19.7858 14.8207 19.9654 13.9147 19.9641 13C19.9654 12.0852 19.7858 11.1792 19.4358 10.3341C19.0857 9.48892 18.5721 8.7213 17.9244 8.07534C17.2784 7.42763 16.5108 6.91398 15.6656 6.56393C14.8205 6.21388 13.9145 6.03432 12.9997 6.03558Z" fill="url(#paint0_linear)"/>
<path fill-rule="evenodd" clip-rule="evenodd" d="M12.3034 5.33936C12.3034 5.24789 12.3214 5.15731 12.3564 5.07281C12.3914 4.9883 12.4427 4.91152 12.5074 4.84684C12.5721 4.78216 12.6488 4.73085 12.7334 4.69585C12.8179 4.66084 12.9084 4.64283 12.9999 4.64283C14.0976 4.64155 15.1847 4.85715 16.1988 5.27723C17.2128 5.69732 18.134 6.31361 18.9092 7.09071C19.6863 7.86593 20.3026 8.78704 20.7227 9.80113C21.1427 10.8152 21.3583 11.9023 21.3571 13C21.3583 14.0976 21.1427 15.1847 20.7227 16.1988C20.3026 17.2129 19.6863 18.134 18.9092 18.9092C18.134 19.6863 17.2128 20.3026 16.1988 20.7227C15.1847 21.1428 14.0976 21.3584 12.9999 21.3571C11.9022 21.3584 10.8152 21.1428 9.80106 20.7227C8.78697 20.3026 7.86586 19.6863 7.09064 18.9092C7.02599 18.8446 6.97471 18.7678 6.93972 18.6834C6.90473 18.5989 6.88672 18.5084 6.88672 18.4169C6.88672 18.3255 6.90473 18.235 6.93972 18.1505C6.97471 18.066 7.02599 17.9893 7.09064 17.9246C7.15529 17.86 7.23205 17.8087 7.31652 17.7737C7.40099 17.7387 7.49152 17.7207 7.58295 17.7207C7.67439 17.7207 7.76492 17.7387 7.84939 17.7737C7.93386 17.8087 8.01061 17.86 8.07527 17.9246C8.72123 18.5723 9.48885 19.086 10.334 19.436C11.1791 19.7861 12.0851 19.9656 12.9999 19.9644C13.9146 19.9657 14.8206 19.7861 15.6657 19.4361C16.5108 19.086 17.2783 18.5723 17.9242 17.9246C18.572 17.2787 19.0858 16.5111 19.4359 15.666C19.786 14.8208 19.9656 13.9148 19.9643 13C19.9656 12.0852 19.786 11.1792 19.4359 10.334C19.0858 9.48885 18.572 8.72125 17.9242 8.07534C17.2783 7.42761 16.5108 6.91395 15.6657 6.5639C14.8206 6.21384 13.9146 6.03429 12.9999 6.03558C12.8152 6.03558 12.6381 5.96224 12.5075 5.83169C12.3769 5.70113 12.3035 5.52404 12.3034 5.33936Z" fill="white"/>
<path fill-rule="evenodd" clip-rule="evenodd" d="M11.3619 10.925C10.5295 10.925 9.85331 11.602 9.8524 12.4302V12.4314L9.85452 12.5444C9.86881 12.9592 9.97061 13.2802 10.2818 13.6667C10.5936 14.0539 11.1154 14.5064 11.969 15.1828L11.973 15.1862L12.9886 15.9815L12.9916 15.9839L12.9938 15.9851L12.9953 15.986C12.9983 15.9868 13.0014 15.9868 13.0044 15.986C13.0057 15.9856 13.007 15.9848 13.0081 15.9839L13.0111 15.9815L14.027 15.1859L14.031 15.1828C14.8843 14.5064 15.4061 14.0539 15.7179 13.6667C16.0291 13.2802 16.1309 12.9592 16.1452 12.5444L16.1473 12.4314V12.4302C16.1464 11.602 15.4702 10.925 14.6379 10.925C14.2148 10.925 13.8486 11.0799 13.5183 11.3896L13.5071 11.4012C13.4415 11.4699 13.3625 11.5246 13.2751 11.5618C13.1877 11.5991 13.0937 11.6181 12.9986 11.6178C12.9037 11.6181 12.8096 11.5991 12.7222 11.5619C12.6348 11.5247 12.5559 11.4701 12.4902 11.4015L12.479 11.3896C12.148 11.0793 11.7843 10.925 11.3619 10.925ZM12.9989 9.99959C12.515 9.6748 11.9447 9.50257 11.3619 9.50516C9.76032 9.50516 8.44141 10.808 8.44141 12.4317V12.4523L8.44171 12.4569L8.44353 12.5669V12.5733L8.44414 12.59V12.5955C8.46937 13.3081 8.67541 13.9271 9.18534 14.5605C9.6108 15.0886 10.2557 15.6323 11.0917 16.2951L11.102 16.3033L12.1088 17.0916L12.1249 17.1047C12.3746 17.3004 12.6826 17.4067 12.9999 17.4067C13.3171 17.4067 13.6251 17.3004 13.8748 17.1047L13.8909 17.0916L14.8977 16.3033L14.9062 16.2963L14.9068 16.296C15.7434 15.6329 16.3886 15.0889 16.8144 14.5605C17.3243 13.9271 17.5303 13.3081 17.5556 12.5955V12.59C17.5559 12.5844 17.5561 12.5789 17.5562 12.5733V12.5669L17.558 12.4581V12.4554L17.5583 12.4523V12.4317C17.5583 10.808 16.2394 9.50516 14.6379 9.50516C14.0544 9.50265 13.4836 9.67486 12.9989 9.99959Z" fill="white"/>
<defs>
<linearGradient id="paint0_linear" x1="6.31401" y1="18.0143" x2="12.7211" y2="5.19987" gradientUnits="userSpaceOnUse">
<stop stop-color="white"/>
<stop offset="0.442" stop-color="white" stop-opacity="0.618"/>
<stop offset="0.721" stop-color="white" stop-opacity="0.359"/>
<stop offset="1" stop-color="white" stop-opacity="0"/>
</linearGradient>
</defs>
</svg>
