<svg width="32" height="32" viewBox="0 0 32 32" fill="none" xmlns="http://www.w3.org/2000/svg">
<rect width="32" height="32" rx="16" fill="#AFAFAF"/>
<path d="M7.11133 12.7112H8.42375V13.5512H8.45C8.58124 13.3734 8.73873 13.2089 8.92247 13.0578C9.07996 12.9334 9.27682 12.8223 9.51305 12.7245C9.74929 12.6267 10.0205 12.5778 10.3268 12.5778H10.6549V13.9778C10.6024 13.9689 10.5499 13.9556 10.4974 13.9378C10.4449 13.9289 10.388 13.9245 10.3268 13.9245C10.2655 13.9156 10.1999 13.9112 10.1299 13.9112C9.90241 13.9112 9.68367 13.9601 9.47368 14.0578C9.27244 14.1467 9.09308 14.2801 8.93559 14.4578C8.7781 14.6267 8.65123 14.8312 8.55499 15.0712C8.46749 15.3023 8.42375 15.5601 8.42375 15.8445V19.1112H7.11133V12.7112Z" fill="white"/>
<path d="M10.7907 20.3778H15.5154V21.5778H10.7907V20.3778Z" fill="white"/>
<path d="M15.2509 20.3778H19.9756V21.5778H15.2509V20.3778Z" fill="white"/>
<path d="M22.139 9.77783V15.6445L24.8295 12.7112H26.47L24.042 15.3112L26.6669 19.1112H25.1576L23.189 16.2445L22.139 17.3778V19.1112H20.8266V9.77783H22.139Z" fill="white"/>
</svg>
