<svg width="1425" height="440" viewBox="0 0 1425 440" fill="none" xmlns="http://www.w3.org/2000/svg">
<rect x="-1" y="400" width="1426" height="40" fill="white"/>
<rect x="-1" y="320" width="1426" height="40" fill="white"/>
<rect x="-1" y="240" width="1426" height="40" fill="white"/>
<rect x="-1" y="160" width="1426" height="40" fill="white"/>
<rect x="-1" y="80" width="1426" height="40" fill="white"/>
<rect x="-1" width="1426" height="40" fill="white"/>
</svg>
