<svg width="40" height="40" viewBox="0 0 40 40" fill="none" xmlns="http://www.w3.org/2000/svg">
<rect width="40" height="40" rx="20" fill="#FFBE17"/>
<path d="M20 20.3741C22.998 20.3741 25.3757 18.0798 25.3757 15.187C25.3757 12.394 22.998 10 20 10C17.002 10 14.6243 12.2943 14.6243 15.187C14.6243 18.0798 17.002 20.3741 20 20.3741ZM20 13.0923C21.2406 13.0923 22.2743 14.0898 22.2743 15.187C22.2743 16.384 21.2406 17.2818 20 17.2818C18.7594 17.2818 17.7257 16.2843 17.7257 15.187C17.7257 14.0898 18.7594 13.0923 20 13.0923ZM22.171 24.5636L25.3757 27.4564C25.996 28.0549 25.996 28.9526 25.3757 29.5511C24.7555 30.1496 23.7217 30.1496 23.1014 29.5511L20.1034 26.7581L17.1054 29.5511C16.7952 29.8504 16.3817 29.9501 15.9682 29.9501C15.5547 29.9501 15.1412 29.8504 14.831 29.5511C14.2108 28.9526 14.2108 28.0549 14.831 27.4564L17.829 24.5636C16.7952 24.3641 15.6581 23.9651 14.7277 23.3666C14.004 22.8678 13.7972 21.9701 14.2108 21.2718C14.6243 20.5736 15.6581 20.3741 16.3817 20.7731C18.5527 22.0698 21.4473 22.0698 23.6183 20.7731C24.3419 20.3741 25.3757 20.5736 25.7892 21.2718C26.2028 21.9701 25.996 22.9676 25.2723 23.3666C24.3419 23.9651 23.3081 24.3641 22.171 24.5636Z" fill="white"/>
</svg>
