<svg width="40" height="40" viewBox="0 0 40 40" fill="none" xmlns="http://www.w3.org/2000/svg">
<rect width="40" height="40" rx="20" fill="#2787F5"/>
<path d="M29.673 27.4145H27.2532C26.3026 27.4145 26.0434 26.7303 24.4014 25.1053C22.9322 23.7368 22.3273 23.5658 21.9816 23.5658C21.4631 23.5658 21.3767 23.7368 21.3767 24.421V26.5592C21.3767 27.1579 21.2038 27.5 19.6482 27.5C17.0556 27.5 14.2902 25.9605 12.3025 23.1382C9.27778 19.0329 8.5 15.8684 8.5 15.2697C8.5 14.9276 8.67284 14.5855 9.36421 14.5855H11.784C12.3889 14.5855 12.6482 14.8421 12.821 15.5263C14.0309 18.9474 16.0186 21.8553 16.7964 21.8553C17.142 21.8553 17.2285 21.6842 17.2285 20.9145V17.4079C17.142 15.7829 16.2778 15.6974 16.2778 15.0987C16.2778 14.8421 16.5371 14.5855 16.8828 14.5855H20.6853C21.2038 14.5855 21.3767 14.8421 21.3767 15.4408V20.1447C21.3767 20.6579 21.6359 20.8289 21.7223 20.8289C22.068 20.8289 22.2408 20.6579 22.8458 20.0592C24.5742 18.1776 25.7841 15.1842 25.7841 15.1842C25.9569 14.8421 26.2162 14.5 26.8211 14.5H29.2409C29.9323 14.5 30.1051 14.8421 29.9323 15.3553C29.5866 16.7237 26.6483 20.8289 26.6483 20.8289C26.3891 21.2566 26.3026 21.4276 26.6483 21.8553C26.9076 22.1974 27.7718 22.8816 28.2903 23.5658C29.3273 24.6776 30.1051 25.7039 30.3644 26.3882C30.7101 27.0724 30.3644 27.4145 29.673 27.4145Z" fill="white"/>
</svg>
