<svg width="564" height="751" viewBox="0 0 564 751" fill="none" xmlns="http://www.w3.org/2000/svg">
<g filter="url(#filter0_ddddd)">
<ellipse cx="291" cy="312" rx="141" ry="155" fill="#C4C4C4"/>
</g>
<ellipse cx="1.06667" cy="337.687" rx="1.06667" ry="1.06533" fill="#AAAAAA"/>
<ellipse cx="1.06667" cy="315.312" rx="1.06667" ry="1.06533" fill="#AAAAAA"/>
<ellipse cx="1.06667" cy="292.938" rx="1.06667" ry="1.06533" fill="#AAAAAA"/>
<ellipse cx="1.06667" cy="270.563" rx="1.06667" ry="1.06533" fill="#AAAAAA"/>
<ellipse cx="1.06667" cy="248.189" rx="1.06667" ry="1.06533" fill="#AAAAAA"/>
<ellipse cx="1.06667" cy="225.814" rx="1.06667" ry="1.06533" fill="#AAAAAA"/>
<ellipse cx="1.06667" cy="203.44" rx="1.06667" ry="1.06533" fill="#AAAAAA"/>
<ellipse cx="1.06667" cy="181.065" rx="1.06667" ry="1.06533" fill="#AAAAAA"/>
<ellipse cx="34.1331" cy="337.687" rx="1.06667" ry="1.06533" fill="#AAAAAA"/>
<ellipse cx="34.1331" cy="315.312" rx="1.06667" ry="1.06533" fill="#AAAAAA"/>
<ellipse cx="34.1331" cy="292.938" rx="1.06667" ry="1.06533" fill="#AAAAAA"/>
<ellipse cx="34.1331" cy="270.563" rx="1.06667" ry="1.06533" fill="#AAAAAA"/>
<ellipse cx="34.1331" cy="248.189" rx="1.06667" ry="1.06533" fill="#AAAAAA"/>
<ellipse cx="34.1331" cy="225.814" rx="1.06667" ry="1.06533" fill="#AAAAAA"/>
<ellipse cx="34.1331" cy="203.44" rx="1.06667" ry="1.06533" fill="#AAAAAA"/>
<ellipse cx="34.1331" cy="181.065" rx="1.06667" ry="1.06533" fill="#AAAAAA"/>
<ellipse cx="67.1995" cy="337.687" rx="1.06667" ry="1.06533" fill="#AAAAAA"/>
<ellipse cx="67.1995" cy="315.312" rx="1.06667" ry="1.06533" fill="#AAAAAA"/>
<ellipse cx="67.1995" cy="292.938" rx="1.06667" ry="1.06533" fill="#AAAAAA"/>
<ellipse cx="67.1995" cy="270.563" rx="1.06667" ry="1.06533" fill="#AAAAAA"/>
<ellipse cx="67.1995" cy="248.189" rx="1.06667" ry="1.06533" fill="#AAAAAA"/>
<ellipse cx="67.1995" cy="225.814" rx="1.06667" ry="1.06533" fill="#AAAAAA"/>
<ellipse cx="67.1995" cy="203.44" rx="1.06667" ry="1.06533" fill="#AAAAAA"/>
<ellipse cx="67.1995" cy="181.065" rx="1.06667" ry="1.06533" fill="#AAAAAA"/>
<ellipse cx="100.267" cy="337.687" rx="1.06667" ry="1.06533" fill="#AAAAAA"/>
<ellipse cx="100.267" cy="315.312" rx="1.06667" ry="1.06533" fill="#AAAAAA"/>
<ellipse cx="100.267" cy="292.938" rx="1.06667" ry="1.06533" fill="#AAAAAA"/>
<ellipse cx="100.267" cy="270.563" rx="1.06667" ry="1.06533" fill="#AAAAAA"/>
<ellipse cx="100.267" cy="248.189" rx="1.06667" ry="1.06533" fill="#AAAAAA"/>
<ellipse cx="100.267" cy="225.814" rx="1.06667" ry="1.06533" fill="#AAAAAA"/>
<ellipse cx="100.267" cy="203.44" rx="1.06667" ry="1.06533" fill="#AAAAAA"/>
<ellipse cx="100.267" cy="181.065" rx="1.06667" ry="1.06533" fill="#AAAAAA"/>
<ellipse cx="133.333" cy="337.687" rx="1.06667" ry="1.06533" fill="#AAAAAA"/>
<ellipse cx="133.333" cy="315.312" rx="1.06667" ry="1.06533" fill="#AAAAAA"/>
<ellipse cx="133.333" cy="292.938" rx="1.06667" ry="1.06533" fill="#AAAAAA"/>
<ellipse cx="133.333" cy="270.563" rx="1.06667" ry="1.06533" fill="#AAAAAA"/>
<ellipse cx="133.333" cy="248.189" rx="1.06667" ry="1.06533" fill="#AAAAAA"/>
<ellipse cx="133.333" cy="225.814" rx="1.06667" ry="1.06533" fill="#AAAAAA"/>
<ellipse cx="133.333" cy="203.44" rx="1.06667" ry="1.06533" fill="#AAAAAA"/>
<ellipse cx="133.333" cy="181.065" rx="1.06667" ry="1.06533" fill="#AAAAAA"/>
<ellipse cx="166.4" cy="337.687" rx="1.06667" ry="1.06533" fill="#AAAAAA"/>
<ellipse cx="166.4" cy="315.312" rx="1.06667" ry="1.06533" fill="#AAAAAA"/>
<ellipse cx="166.4" cy="292.938" rx="1.06667" ry="1.06533" fill="#AAAAAA"/>
<ellipse cx="166.4" cy="270.563" rx="1.06667" ry="1.06533" fill="#AAAAAA"/>
<ellipse cx="166.4" cy="248.189" rx="1.06667" ry="1.06533" fill="#AAAAAA"/>
<ellipse cx="166.4" cy="225.814" rx="1.06667" ry="1.06533" fill="#AAAAAA"/>
<ellipse cx="166.4" cy="203.44" rx="1.06667" ry="1.06533" fill="#AAAAAA"/>
<ellipse cx="166.4" cy="181.065" rx="1.06667" ry="1.06533" fill="#AAAAAA"/>
<ellipse cx="199.466" cy="337.687" rx="1.06667" ry="1.06533" fill="#AAAAAA"/>
<ellipse cx="199.466" cy="315.312" rx="1.06667" ry="1.06533" fill="#AAAAAA"/>
<ellipse cx="199.466" cy="292.938" rx="1.06667" ry="1.06533" fill="#AAAAAA"/>
<ellipse cx="199.466" cy="270.563" rx="1.06667" ry="1.06533" fill="#AAAAAA"/>
<ellipse cx="199.466" cy="248.189" rx="1.06667" ry="1.06533" fill="#AAAAAA"/>
<ellipse cx="199.466" cy="225.814" rx="1.06667" ry="1.06533" fill="#AAAAAA"/>
<ellipse cx="199.466" cy="203.44" rx="1.06667" ry="1.06533" fill="#AAAAAA"/>
<ellipse cx="199.466" cy="181.065" rx="1.06667" ry="1.06533" fill="#AAAAAA"/>
<ellipse cx="232.532" cy="337.687" rx="1.06667" ry="1.06533" fill="#AAAAAA"/>
<ellipse cx="232.532" cy="315.312" rx="1.06667" ry="1.06533" fill="#AAAAAA"/>
<ellipse cx="232.532" cy="292.938" rx="1.06667" ry="1.06533" fill="#AAAAAA"/>
<ellipse cx="232.532" cy="270.563" rx="1.06667" ry="1.06533" fill="#AAAAAA"/>
<ellipse cx="232.532" cy="248.189" rx="1.06667" ry="1.06533" fill="#AAAAAA"/>
<ellipse cx="232.532" cy="225.814" rx="1.06667" ry="1.06533" fill="#AAAAAA"/>
<ellipse cx="232.532" cy="203.44" rx="1.06667" ry="1.06533" fill="#AAAAAA"/>
<ellipse cx="232.532" cy="181.065" rx="1.06667" ry="1.06533" fill="#AAAAAA"/>
<ellipse cx="265.6" cy="337.687" rx="1.06667" ry="1.06533" fill="#AAAAAA"/>
<ellipse cx="265.6" cy="315.312" rx="1.06667" ry="1.06533" fill="#AAAAAA"/>
<ellipse cx="265.6" cy="292.938" rx="1.06667" ry="1.06533" fill="#AAAAAA"/>
<ellipse cx="265.6" cy="270.563" rx="1.06667" ry="1.06533" fill="#AAAAAA"/>
<ellipse cx="265.6" cy="248.189" rx="1.06667" ry="1.06533" fill="#AAAAAA"/>
<ellipse cx="265.6" cy="225.814" rx="1.06667" ry="1.06533" fill="#AAAAAA"/>
<ellipse cx="265.6" cy="203.44" rx="1.06667" ry="1.06533" fill="#AAAAAA"/>
<ellipse cx="265.6" cy="181.065" rx="1.06667" ry="1.06533" fill="#AAAAAA"/>
<ellipse cx="298.666" cy="337.687" rx="1.06667" ry="1.06533" fill="#AAAAAA"/>
<ellipse cx="298.666" cy="315.312" rx="1.06667" ry="1.06533" fill="#AAAAAA"/>
<ellipse cx="298.666" cy="292.938" rx="1.06667" ry="1.06533" fill="#AAAAAA"/>
<ellipse cx="298.666" cy="270.563" rx="1.06667" ry="1.06533" fill="#AAAAAA"/>
<ellipse cx="298.666" cy="248.189" rx="1.06667" ry="1.06533" fill="#AAAAAA"/>
<ellipse cx="298.666" cy="225.814" rx="1.06667" ry="1.06533" fill="#AAAAAA"/>
<ellipse cx="298.666" cy="203.44" rx="1.06667" ry="1.06533" fill="#AAAAAA"/>
<ellipse cx="298.666" cy="181.065" rx="1.06667" ry="1.06533" fill="#AAAAAA"/>
<ellipse cx="331.733" cy="337.687" rx="1.06667" ry="1.06533" fill="#AAAAAA"/>
<ellipse cx="331.733" cy="315.312" rx="1.06667" ry="1.06533" fill="#AAAAAA"/>
<ellipse cx="331.733" cy="292.938" rx="1.06667" ry="1.06533" fill="#AAAAAA"/>
<ellipse cx="331.733" cy="270.563" rx="1.06667" ry="1.06533" fill="#AAAAAA"/>
<ellipse cx="331.733" cy="248.189" rx="1.06667" ry="1.06533" fill="#AAAAAA"/>
<ellipse cx="331.733" cy="225.814" rx="1.06667" ry="1.06533" fill="#AAAAAA"/>
<ellipse cx="331.733" cy="203.44" rx="1.06667" ry="1.06533" fill="#AAAAAA"/>
<ellipse cx="331.733" cy="181.065" rx="1.06667" ry="1.06533" fill="#AAAAAA"/>
<ellipse cx="364.8" cy="337.687" rx="1.06667" ry="1.06533" fill="#AAAAAA"/>
<ellipse cx="364.8" cy="315.312" rx="1.06667" ry="1.06533" fill="#AAAAAA"/>
<ellipse cx="364.8" cy="292.938" rx="1.06667" ry="1.06533" fill="#AAAAAA"/>
<ellipse cx="364.8" cy="270.563" rx="1.06667" ry="1.06533" fill="#AAAAAA"/>
<ellipse cx="364.8" cy="248.189" rx="1.06667" ry="1.06533" fill="#AAAAAA"/>
<ellipse cx="364.8" cy="225.814" rx="1.06667" ry="1.06533" fill="#AAAAAA"/>
<ellipse cx="364.8" cy="203.44" rx="1.06667" ry="1.06533" fill="#AAAAAA"/>
<ellipse cx="364.8" cy="181.065" rx="1.06667" ry="1.06533" fill="#AAAAAA"/>
<ellipse cx="397.866" cy="337.687" rx="1.06667" ry="1.06533" fill="#AAAAAA"/>
<ellipse cx="397.866" cy="315.312" rx="1.06667" ry="1.06533" fill="#AAAAAA"/>
<ellipse cx="397.866" cy="292.938" rx="1.06667" ry="1.06533" fill="#AAAAAA"/>
<ellipse cx="397.866" cy="270.563" rx="1.06667" ry="1.06533" fill="#AAAAAA"/>
<ellipse cx="397.866" cy="248.189" rx="1.06667" ry="1.06533" fill="#AAAAAA"/>
<ellipse cx="397.866" cy="225.814" rx="1.06667" ry="1.06533" fill="#AAAAAA"/>
<ellipse cx="397.866" cy="203.44" rx="1.06667" ry="1.06533" fill="#AAAAAA"/>
<ellipse cx="397.866" cy="181.065" rx="1.06667" ry="1.06533" fill="#AAAAAA"/>
<ellipse cx="1.39967" cy="158.312" rx="1.06667" ry="1.06533" fill="#AAAAAA"/>
<ellipse cx="1.39967" cy="135.938" rx="1.06667" ry="1.06533" fill="#AAAAAA"/>
<ellipse cx="1.39967" cy="113.563" rx="1.06667" ry="1.06533" fill="#AAAAAA"/>
<ellipse cx="1.39967" cy="91.1889" rx="1.06667" ry="1.06533" fill="#AAAAAA"/>
<ellipse cx="1.39967" cy="68.8144" rx="1.06667" ry="1.06533" fill="#AAAAAA"/>
<ellipse cx="1.39967" cy="46.4398" rx="1.06667" ry="1.06533" fill="#AAAAAA"/>
<ellipse cx="1.39967" cy="24.0653" rx="1.06667" ry="1.06533" fill="#AAAAAA"/>
<ellipse cx="34.4661" cy="158.312" rx="1.06667" ry="1.06533" fill="#AAAAAA"/>
<ellipse cx="34.4661" cy="135.938" rx="1.06667" ry="1.06533" fill="#AAAAAA"/>
<ellipse cx="34.4661" cy="113.563" rx="1.06667" ry="1.06533" fill="#AAAAAA"/>
<ellipse cx="34.4661" cy="91.1889" rx="1.06667" ry="1.06533" fill="#AAAAAA"/>
<ellipse cx="34.4661" cy="68.8144" rx="1.06667" ry="1.06533" fill="#AAAAAA"/>
<ellipse cx="34.4661" cy="46.4398" rx="1.06667" ry="1.06533" fill="#AAAAAA"/>
<ellipse cx="34.4661" cy="24.0653" rx="1.06667" ry="1.06533" fill="#AAAAAA"/>
<ellipse cx="67.5325" cy="158.312" rx="1.06667" ry="1.06533" fill="#AAAAAA"/>
<ellipse cx="67.5325" cy="135.938" rx="1.06667" ry="1.06533" fill="#AAAAAA"/>
<ellipse cx="67.5325" cy="113.563" rx="1.06667" ry="1.06533" fill="#AAAAAA"/>
<ellipse cx="67.5325" cy="91.1889" rx="1.06667" ry="1.06533" fill="#AAAAAA"/>
<ellipse cx="67.5325" cy="68.8144" rx="1.06667" ry="1.06533" fill="#AAAAAA"/>
<ellipse cx="67.5325" cy="46.4398" rx="1.06667" ry="1.06533" fill="#AAAAAA"/>
<ellipse cx="67.5325" cy="24.0653" rx="1.06667" ry="1.06533" fill="#AAAAAA"/>
<ellipse cx="100.6" cy="158.312" rx="1.06667" ry="1.06533" fill="#AAAAAA"/>
<ellipse cx="100.6" cy="135.938" rx="1.06667" ry="1.06533" fill="#AAAAAA"/>
<ellipse cx="100.6" cy="113.563" rx="1.06667" ry="1.06533" fill="#AAAAAA"/>
<ellipse cx="100.6" cy="91.1889" rx="1.06667" ry="1.06533" fill="#AAAAAA"/>
<ellipse cx="100.6" cy="68.8144" rx="1.06667" ry="1.06533" fill="#AAAAAA"/>
<ellipse cx="100.6" cy="46.4398" rx="1.06667" ry="1.06533" fill="#AAAAAA"/>
<ellipse cx="100.6" cy="24.0653" rx="1.06667" ry="1.06533" fill="#AAAAAA"/>
<ellipse cx="133.666" cy="158.312" rx="1.06667" ry="1.06533" fill="#AAAAAA"/>
<ellipse cx="133.666" cy="135.938" rx="1.06667" ry="1.06533" fill="#AAAAAA"/>
<ellipse cx="133.666" cy="113.563" rx="1.06667" ry="1.06533" fill="#AAAAAA"/>
<ellipse cx="133.666" cy="91.1889" rx="1.06667" ry="1.06533" fill="#AAAAAA"/>
<ellipse cx="133.666" cy="68.8144" rx="1.06667" ry="1.06533" fill="#AAAAAA"/>
<ellipse cx="133.666" cy="46.4398" rx="1.06667" ry="1.06533" fill="#AAAAAA"/>
<ellipse cx="133.666" cy="24.0653" rx="1.06667" ry="1.06533" fill="#AAAAAA"/>
<ellipse cx="166.733" cy="180.687" rx="1.06667" ry="1.06533" fill="#AAAAAA"/>
<ellipse cx="166.733" cy="158.312" rx="1.06667" ry="1.06533" fill="#AAAAAA"/>
<ellipse cx="166.733" cy="135.938" rx="1.06667" ry="1.06533" fill="#AAAAAA"/>
<ellipse cx="166.733" cy="113.563" rx="1.06667" ry="1.06533" fill="#AAAAAA"/>
<ellipse cx="166.733" cy="91.1889" rx="1.06667" ry="1.06533" fill="#AAAAAA"/>
<ellipse cx="166.733" cy="68.8144" rx="1.06667" ry="1.06533" fill="#AAAAAA"/>
<ellipse cx="166.733" cy="46.4398" rx="1.06667" ry="1.06533" fill="#AAAAAA"/>
<ellipse cx="166.733" cy="24.0653" rx="1.06667" ry="1.06533" fill="#AAAAAA"/>
<ellipse cx="199.799" cy="180.687" rx="1.06667" ry="1.06533" fill="#AAAAAA"/>
<ellipse cx="199.799" cy="158.312" rx="1.06667" ry="1.06533" fill="#AAAAAA"/>
<ellipse cx="199.799" cy="135.938" rx="1.06667" ry="1.06533" fill="#AAAAAA"/>
<ellipse cx="199.799" cy="113.563" rx="1.06667" ry="1.06533" fill="#AAAAAA"/>
<ellipse cx="199.799" cy="91.1889" rx="1.06667" ry="1.06533" fill="#AAAAAA"/>
<ellipse cx="199.799" cy="68.8144" rx="1.06667" ry="1.06533" fill="#AAAAAA"/>
<ellipse cx="199.799" cy="46.4398" rx="1.06667" ry="1.06533" fill="#AAAAAA"/>
<ellipse cx="199.799" cy="24.0653" rx="1.06667" ry="1.06533" fill="#AAAAAA"/>
<ellipse cx="232.865" cy="180.687" rx="1.06667" ry="1.06533" fill="#AAAAAA"/>
<ellipse cx="232.865" cy="158.312" rx="1.06667" ry="1.06533" fill="#AAAAAA"/>
<ellipse cx="232.865" cy="135.938" rx="1.06667" ry="1.06533" fill="#AAAAAA"/>
<ellipse cx="232.865" cy="113.563" rx="1.06667" ry="1.06533" fill="#AAAAAA"/>
<ellipse cx="232.865" cy="91.1889" rx="1.06667" ry="1.06533" fill="#AAAAAA"/>
<ellipse cx="232.865" cy="68.8144" rx="1.06667" ry="1.06533" fill="#AAAAAA"/>
<ellipse cx="232.865" cy="46.4398" rx="1.06667" ry="1.06533" fill="#AAAAAA"/>
<ellipse cx="232.865" cy="24.0653" rx="1.06667" ry="1.06533" fill="#AAAAAA"/>
<ellipse cx="265.933" cy="180.687" rx="1.06667" ry="1.06533" fill="#AAAAAA"/>
<ellipse cx="265.933" cy="158.312" rx="1.06667" ry="1.06533" fill="#AAAAAA"/>
<ellipse cx="265.933" cy="135.938" rx="1.06667" ry="1.06533" fill="#AAAAAA"/>
<ellipse cx="265.933" cy="113.563" rx="1.06667" ry="1.06533" fill="#AAAAAA"/>
<ellipse cx="265.933" cy="91.1889" rx="1.06667" ry="1.06533" fill="#AAAAAA"/>
<ellipse cx="265.933" cy="68.8144" rx="1.06667" ry="1.06533" fill="#AAAAAA"/>
<ellipse cx="265.933" cy="46.4398" rx="1.06667" ry="1.06533" fill="#AAAAAA"/>
<ellipse cx="265.933" cy="24.0653" rx="1.06667" ry="1.06533" fill="#AAAAAA"/>
<ellipse cx="298.999" cy="180.687" rx="1.06667" ry="1.06533" fill="#AAAAAA"/>
<ellipse cx="298.999" cy="158.312" rx="1.06667" ry="1.06533" fill="#AAAAAA"/>
<ellipse cx="298.999" cy="135.938" rx="1.06667" ry="1.06533" fill="#AAAAAA"/>
<ellipse cx="298.999" cy="113.563" rx="1.06667" ry="1.06533" fill="#AAAAAA"/>
<ellipse cx="298.999" cy="91.1889" rx="1.06667" ry="1.06533" fill="#AAAAAA"/>
<ellipse cx="298.999" cy="68.8144" rx="1.06667" ry="1.06533" fill="#AAAAAA"/>
<ellipse cx="298.999" cy="46.4398" rx="1.06667" ry="1.06533" fill="#AAAAAA"/>
<ellipse cx="298.999" cy="24.0653" rx="1.06667" ry="1.06533" fill="#AAAAAA"/>
<ellipse cx="332.066" cy="180.687" rx="1.06667" ry="1.06533" fill="#AAAAAA"/>
<ellipse cx="332.066" cy="158.312" rx="1.06667" ry="1.06533" fill="#AAAAAA"/>
<ellipse cx="332.066" cy="135.938" rx="1.06667" ry="1.06533" fill="#AAAAAA"/>
<ellipse cx="332.066" cy="113.563" rx="1.06667" ry="1.06533" fill="#AAAAAA"/>
<ellipse cx="332.066" cy="91.1889" rx="1.06667" ry="1.06533" fill="#AAAAAA"/>
<ellipse cx="332.066" cy="68.8144" rx="1.06667" ry="1.06533" fill="#AAAAAA"/>
<ellipse cx="332.066" cy="46.4398" rx="1.06667" ry="1.06533" fill="#AAAAAA"/>
<ellipse cx="332.066" cy="24.0653" rx="1.06667" ry="1.06533" fill="#AAAAAA"/>
<ellipse cx="365.133" cy="180.687" rx="1.06667" ry="1.06533" fill="#AAAAAA"/>
<ellipse cx="365.133" cy="158.312" rx="1.06667" ry="1.06533" fill="#AAAAAA"/>
<ellipse cx="365.133" cy="135.938" rx="1.06667" ry="1.06533" fill="#AAAAAA"/>
<ellipse cx="365.133" cy="113.563" rx="1.06667" ry="1.06533" fill="#AAAAAA"/>
<ellipse cx="365.133" cy="91.1889" rx="1.06667" ry="1.06533" fill="#AAAAAA"/>
<ellipse cx="365.133" cy="68.8144" rx="1.06667" ry="1.06533" fill="#AAAAAA"/>
<ellipse cx="365.133" cy="46.4398" rx="1.06667" ry="1.06533" fill="#AAAAAA"/>
<ellipse cx="365.133" cy="24.0653" rx="1.06667" ry="1.06533" fill="#AAAAAA"/>
<ellipse cx="398.199" cy="180.687" rx="1.06667" ry="1.06533" fill="#AAAAAA"/>
<ellipse cx="398.199" cy="158.312" rx="1.06667" ry="1.06533" fill="#AAAAAA"/>
<ellipse cx="398.199" cy="135.938" rx="1.06667" ry="1.06533" fill="#AAAAAA"/>
<ellipse cx="398.199" cy="113.563" rx="1.06667" ry="1.06533" fill="#AAAAAA"/>
<ellipse cx="398.199" cy="91.1889" rx="1.06667" ry="1.06533" fill="#AAAAAA"/>
<ellipse cx="398.199" cy="68.8144" rx="1.06667" ry="1.06533" fill="#AAAAAA"/>
<ellipse cx="398.199" cy="46.4398" rx="1.06667" ry="1.06533" fill="#AAAAAA"/>
<ellipse cx="398.199" cy="24.0653" rx="1.06667" ry="1.06533" fill="#AAAAAA"/>
<circle cx="406.286" cy="157.714" r="157.714" fill="white"/>
<path d="M405.571 151.571L436.428 89.8569H475" stroke="#F97C83" stroke-width="1.54286"/>
<path d="M448.429 225.286L475.857 170.857H514.429" stroke="#FD5660" stroke-width="1.54286"/>
<path d="M312.143 143L339.571 89H378.143" stroke="#D20028" stroke-width="1.54286"/>
<circle cx="378" cy="89" r="4" fill="#D20028"/>
<circle cx="475" cy="90" r="4" fill="#F97C83"/>
<circle cx="514" cy="171" r="4" fill="#FD5660"/>
<path d="M295 308.429V174.714C306.28 174.714 317.942 176.126 328.857 179L295 308.429Z" fill="#D20028"/>
<g filter="url(#filter1_d)">
<path d="M295 308.409L338.257 142.55C372.015 151.356 402.282 170.256 425.013 196.725L295 308.409Z" fill="url(#paint0_linear)"/>
</g>
<path d="M295.857 309.286L487.22 437.857H553" stroke="#333333" stroke-width="1.54286"/>
<circle cx="552" cy="438" r="4" fill="#333333"/>
<path d="M295 308.429L410.824 209C425.693 226.302 436.493 246.715 442.429 268.737L295 308.429Z" fill="#FD5660"/>
<path d="M295 308.429L447.248 267.286C469.898 351.532 420.096 438.224 336.012 460.918C334.798 461.246 333.58 461.559 332.358 461.857L295 308.429Z" fill="url(#paint1_linear)"/>
<path d="M294.999 308.409L335.606 474.937C243.646 497.366 150.918 440.992 128.491 349.021C106.064 257.05 162.432 164.31 254.391 141.881C267.684 138.639 281.317 137 294.999 137V308.409Z" fill="#FC2C38"/>
<path d="M47.6971 419.629C47.9885 420.006 48.3485 420.349 48.7771 420.657C49.1371 420.914 49.5914 421.154 50.14 421.377C50.6885 421.583 51.3314 421.686 52.0685 421.686C53.2342 421.686 54.1428 421.369 54.7942 420.734C55.4628 420.083 55.7971 419.243 55.7971 418.214C55.7971 417.186 55.4628 416.354 54.7942 415.72C54.1428 415.069 53.2342 414.743 52.0685 414.743C51.52 414.743 51.04 414.837 50.6285 415.026C50.2171 415.197 49.8657 415.403 49.5742 415.643C49.2485 415.9 48.9657 416.2 48.7257 416.543L46.6685 416.286L47.3114 406H57.4685V408.7H49.7542L49.4971 413.071C49.7371 412.9 50.0114 412.746 50.32 412.609C50.5942 412.506 50.92 412.411 51.2971 412.326C51.6742 412.223 52.1028 412.171 52.5828 412.171C53.4571 412.171 54.2628 412.326 55 412.634C55.7371 412.926 56.3714 413.346 56.9028 413.894C57.4514 414.426 57.8714 415.06 58.1628 415.797C58.4714 416.534 58.6257 417.34 58.6257 418.214C58.6257 419.089 58.4714 419.894 58.1628 420.631C57.8542 421.369 57.4085 422.011 56.8257 422.56C56.26 423.091 55.5742 423.511 54.7685 423.82C53.9628 424.111 53.0628 424.257 52.0685 424.257C51.0057 424.257 50.08 424.12 49.2914 423.846C48.5028 423.554 47.8514 423.237 47.3371 422.894C46.72 422.5 46.1971 422.054 45.7685 421.557L47.6971 419.629ZM66.2194 424.257C65.1566 424.257 64.2308 424.12 63.4423 423.846C62.6537 423.554 62.0023 423.237 61.488 422.894C60.8708 422.5 60.348 422.054 59.9194 421.557L61.848 419.629C62.1394 420.006 62.4994 420.349 62.928 420.657C63.288 420.914 63.7423 421.154 64.2908 421.377C64.8394 421.583 65.4823 421.686 66.2194 421.686C67.3851 421.686 68.2766 421.403 68.8937 420.837C69.5108 420.271 69.8194 419.569 69.8194 418.729C69.8194 417.957 69.5108 417.297 68.8937 416.749C68.2766 416.183 67.3851 415.9 66.2194 415.9H64.2908V413.2H66.2194C67.1966 413.2 67.9337 412.977 68.4308 412.531C68.928 412.069 69.1766 411.477 69.1766 410.757C69.1766 410.037 68.928 409.454 68.4308 409.009C67.9337 408.546 67.1966 408.314 66.2194 408.314C65.6194 408.314 65.0794 408.409 64.5994 408.597C64.1194 408.769 63.708 408.974 63.3651 409.214C62.988 409.471 62.6537 409.771 62.3623 410.114L60.4337 408.186C60.8623 407.723 61.3594 407.311 61.9251 406.951C62.4223 406.66 63.0308 406.386 63.7508 406.129C64.4708 405.871 65.2937 405.743 66.2194 405.743C67.128 405.743 67.9337 405.871 68.6366 406.129C69.3566 406.386 69.9651 406.729 70.4623 407.157C70.9594 407.586 71.3366 408.091 71.5937 408.674C71.868 409.24 72.0051 409.849 72.0051 410.5C72.0051 411.237 71.868 411.854 71.5937 412.351C71.3194 412.849 71.0194 413.26 70.6937 413.586C70.2994 413.946 69.8537 414.237 69.3566 414.46V414.511C69.9737 414.734 70.5223 415.043 71.0023 415.437C71.4137 415.78 71.7908 416.226 72.1337 416.774C72.4766 417.323 72.648 418.017 72.648 418.857C72.648 419.594 72.4937 420.297 72.1851 420.966C71.8937 421.617 71.4737 422.191 70.9251 422.689C70.3766 423.169 69.6994 423.554 68.8937 423.846C68.1051 424.12 67.2137 424.257 66.2194 424.257ZM79.0876 413.714C78.5048 413.714 77.9648 413.611 77.4676 413.406C76.9705 413.183 76.5333 412.891 76.1562 412.531C75.7962 412.171 75.5048 411.751 75.2819 411.271C75.0762 410.791 74.9733 410.277 74.9733 409.729C74.9733 409.18 75.0762 408.666 75.2819 408.186C75.5048 407.706 75.7962 407.286 76.1562 406.926C76.5333 406.566 76.9705 406.283 77.4676 406.077C77.9648 405.854 78.5048 405.743 79.0876 405.743C79.6705 405.743 80.2105 405.854 80.7076 406.077C81.2048 406.283 81.6333 406.566 81.9933 406.926C82.3705 407.286 82.6619 407.706 82.8676 408.186C83.0905 408.666 83.2019 409.18 83.2019 409.729C83.2019 410.277 83.0905 410.791 82.8676 411.271C82.6619 411.751 82.3705 412.171 81.9933 412.531C81.6333 412.891 81.2048 413.183 80.7076 413.406C80.2105 413.611 79.6705 413.714 79.0876 413.714ZM88.6019 406H90.9162L79.6019 424H77.2876L88.6019 406ZM79.0876 411.786C79.6705 411.786 80.159 411.589 80.5533 411.194C80.9476 410.8 81.1448 410.311 81.1448 409.729C81.1448 409.146 80.9476 408.657 80.5533 408.263C80.159 407.869 79.6705 407.671 79.0876 407.671C78.5048 407.671 78.0162 407.869 77.6219 408.263C77.2276 408.657 77.0305 409.146 77.0305 409.729C77.0305 410.311 77.2276 410.8 77.6219 411.194C78.0162 411.589 78.5048 411.786 79.0876 411.786ZM89.1162 424.257C88.5333 424.257 87.9933 424.154 87.4962 423.949C86.999 423.726 86.5619 423.434 86.1848 423.074C85.8248 422.714 85.5333 422.294 85.3105 421.814C85.1048 421.334 85.0019 420.82 85.0019 420.271C85.0019 419.723 85.1048 419.209 85.3105 418.729C85.5333 418.249 85.8248 417.829 86.1848 417.469C86.5619 417.109 86.999 416.826 87.4962 416.62C87.9933 416.397 88.5333 416.286 89.1162 416.286C89.699 416.286 90.239 416.397 90.7362 416.62C91.2333 416.826 91.6619 417.109 92.0219 417.469C92.399 417.829 92.6905 418.249 92.8962 418.729C93.119 419.209 93.2305 419.723 93.2305 420.271C93.2305 420.82 93.119 421.334 92.8962 421.814C92.6905 422.294 92.399 422.714 92.0219 423.074C91.6619 423.434 91.2333 423.726 90.7362 423.949C90.239 424.154 89.699 424.257 89.1162 424.257ZM89.1162 422.329C89.699 422.329 90.1876 422.131 90.5819 421.737C90.9762 421.343 91.1733 420.854 91.1733 420.271C91.1733 419.689 90.9762 419.2 90.5819 418.806C90.1876 418.411 89.699 418.214 89.1162 418.214C88.5333 418.214 88.0448 418.411 87.6505 418.806C87.2562 419.2 87.059 419.689 87.059 420.271C87.059 420.854 87.2562 421.343 87.6505 421.737C88.0448 422.131 88.5333 422.329 89.1162 422.329Z" fill="#FC2C38"/>
<path d="M502.906 420.66V423H492.432C492.432 421.826 492.625 420.831 493.011 420.014C493.412 419.182 493.91 418.469 494.504 417.874C495.098 417.265 495.745 416.738 496.443 416.292C497.141 415.831 497.788 415.386 498.382 414.955C498.976 414.524 499.466 414.078 499.853 413.618C500.254 413.157 500.454 412.607 500.454 411.969C500.454 411.241 500.209 410.654 499.719 410.208C499.244 409.747 498.56 409.517 497.669 409.517C497.089 409.517 496.606 409.629 496.22 409.851C495.834 410.074 495.522 410.312 495.284 410.565C495.017 410.877 494.809 411.233 494.66 411.634L492.654 410.743C492.862 410.074 493.182 409.48 493.613 408.96C493.984 408.514 494.497 408.106 495.15 407.734C495.804 407.363 496.644 407.177 497.669 407.177C498.456 407.177 499.169 407.303 499.808 407.556C500.447 407.794 500.997 408.135 501.457 408.581C501.918 409.012 502.274 409.517 502.527 410.097C502.78 410.676 502.906 411.3 502.906 411.969C502.906 412.726 502.757 413.387 502.46 413.952C502.178 414.517 501.806 415.029 501.346 415.49C500.885 415.935 500.365 416.351 499.786 416.738C499.206 417.109 498.634 417.495 498.07 417.897C497.52 418.283 497 418.699 496.51 419.145C496.02 419.575 495.626 420.081 495.329 420.66H502.906ZM506.685 419.211C506.937 419.538 507.249 419.835 507.621 420.103C507.933 420.326 508.327 420.534 508.802 420.727C509.277 420.905 509.835 420.994 510.473 420.994C511.484 420.994 512.271 420.719 512.836 420.17C513.415 419.605 513.705 418.877 513.705 417.986C513.705 417.094 513.415 416.374 512.836 415.824C512.271 415.259 511.484 414.977 510.473 414.977C509.998 414.977 509.582 415.059 509.225 415.222C508.869 415.371 508.564 415.549 508.312 415.757C508.029 415.98 507.784 416.24 507.576 416.537L505.793 416.314L506.351 407.4H515.153V409.74H508.468L508.245 413.529C508.453 413.38 508.691 413.246 508.958 413.127C509.196 413.038 509.478 412.957 509.805 412.882C510.132 412.793 510.503 412.749 510.919 412.749C511.677 412.749 512.375 412.882 513.014 413.15C513.653 413.402 514.203 413.766 514.663 414.242C515.139 414.702 515.503 415.252 515.755 415.891C516.023 416.53 516.156 417.228 516.156 417.986C516.156 418.743 516.023 419.442 515.755 420.081C515.488 420.719 515.101 421.277 514.596 421.752C514.106 422.213 513.512 422.577 512.813 422.844C512.115 423.097 511.335 423.223 510.473 423.223C509.552 423.223 508.75 423.104 508.067 422.866C507.383 422.614 506.819 422.339 506.373 422.042C505.838 421.7 505.385 421.314 505.013 420.883L506.685 419.211ZM519.273 420.326L521.278 421.44L518.493 425.897L517.044 425.117L519.273 420.326ZM530.41 409.74H522.832V407.4H533.084V409.629L526.621 423H523.947L530.41 409.74ZM538.199 414.086C537.694 414.086 537.226 413.997 536.795 413.818C536.364 413.625 535.985 413.373 535.658 413.061C535.346 412.749 535.094 412.385 534.901 411.969C534.722 411.553 534.633 411.107 534.633 410.631C534.633 410.156 534.722 409.71 534.901 409.294C535.094 408.878 535.346 408.514 535.658 408.202C535.985 407.89 536.364 407.645 536.795 407.467C537.226 407.274 537.694 407.177 538.199 407.177C538.704 407.177 539.172 407.274 539.603 407.467C540.034 407.645 540.405 407.89 540.717 408.202C541.044 408.514 541.297 408.878 541.475 409.294C541.668 409.71 541.765 410.156 541.765 410.631C541.765 411.107 541.668 411.553 541.475 411.969C541.297 412.385 541.044 412.749 540.717 413.061C540.405 413.373 540.034 413.625 539.603 413.818C539.172 413.997 538.704 414.086 538.199 414.086ZM546.445 407.4H548.45L538.645 423H536.639L546.445 407.4ZM538.199 412.414C538.704 412.414 539.128 412.243 539.469 411.902C539.811 411.56 539.982 411.137 539.982 410.631C539.982 410.126 539.811 409.703 539.469 409.361C539.128 409.019 538.704 408.849 538.199 408.849C537.694 408.849 537.27 409.019 536.929 409.361C536.587 409.703 536.416 410.126 536.416 410.631C536.416 411.137 536.587 411.56 536.929 411.902C537.27 412.243 537.694 412.414 538.199 412.414ZM546.89 423.223C546.385 423.223 545.917 423.134 545.486 422.955C545.056 422.762 544.677 422.51 544.35 422.198C544.038 421.886 543.785 421.522 543.592 421.106C543.414 420.69 543.325 420.244 543.325 419.769C543.325 419.293 543.414 418.847 543.592 418.431C543.785 418.015 544.038 417.651 544.35 417.339C544.677 417.027 545.056 416.782 545.486 416.604C545.917 416.411 546.385 416.314 546.89 416.314C547.396 416.314 547.864 416.411 548.294 416.604C548.725 416.782 549.097 417.027 549.409 417.339C549.736 417.651 549.988 418.015 550.166 418.431C550.36 418.847 550.456 419.293 550.456 419.769C550.456 420.244 550.36 420.69 550.166 421.106C549.988 421.522 549.736 421.886 549.409 422.198C549.097 422.51 548.725 422.762 548.294 422.955C547.864 423.134 547.396 423.223 546.89 423.223ZM546.89 421.551C547.396 421.551 547.819 421.381 548.161 421.039C548.502 420.697 548.673 420.274 548.673 419.769C548.673 419.263 548.502 418.84 548.161 418.498C547.819 418.157 547.396 417.986 546.89 417.986C546.385 417.986 545.962 418.157 545.62 418.498C545.278 418.84 545.108 419.263 545.108 419.769C545.108 420.274 545.278 420.697 545.62 421.039C545.962 421.381 546.385 421.551 546.89 421.551Z" fill="#333333"/>
<path d="M340.086 72.6858L345.828 64.7144H347.457V72.9429H349V74.1429H347.457V76.7144H346.171V74.1429H340.086V72.6858ZM346.171 72.9429V66.1715L341.286 72.9429H346.171ZM351.142 75.1715L352.342 75.8572L350.371 78.9429L349.599 78.5144L351.142 75.1715ZM354.395 73.2001C354.395 72.6401 354.497 72.1715 354.703 71.7944C354.92 71.4172 355.155 71.1144 355.406 70.8858C355.703 70.6115 356.04 70.3886 356.417 70.2172V70.1829C356.132 70.0344 355.88 69.8458 355.663 69.6172C355.469 69.4115 355.292 69.1544 355.132 68.8458C354.983 68.5258 354.909 68.1486 354.909 67.7144C354.909 67.3029 355 66.9086 355.183 66.5315C355.366 66.1544 355.612 65.8172 355.92 65.5201C356.24 65.2229 356.612 64.9886 357.035 64.8172C357.469 64.6344 357.932 64.5429 358.423 64.5429C358.915 64.5429 359.372 64.6344 359.795 64.8172C360.229 64.9886 360.6 65.2229 360.909 65.5201C361.229 65.8172 361.48 66.1544 361.663 66.5315C361.846 66.9086 361.937 67.3029 361.937 67.7144C361.937 68.1486 361.857 68.5258 361.697 68.8458C361.549 69.1544 361.377 69.4115 361.183 69.6172C360.966 69.8458 360.715 70.0344 360.429 70.1829V70.2172C360.806 70.3886 361.143 70.6115 361.44 70.8858C361.703 71.1144 361.937 71.4172 362.143 71.7944C362.349 72.1715 362.452 72.6401 362.452 73.2001C362.452 73.6915 362.349 74.1601 362.143 74.6058C361.949 75.0515 361.669 75.4458 361.303 75.7886C360.949 76.1201 360.526 76.3886 360.035 76.5944C359.543 76.7886 359.006 76.8858 358.423 76.8858C357.84 76.8858 357.303 76.7886 356.812 76.5944C356.32 76.3886 355.892 76.1201 355.526 75.7886C355.172 75.4458 354.892 75.0515 354.686 74.6058C354.492 74.1601 354.395 73.6915 354.395 73.2001ZM358.423 70.7144C358.035 70.7144 357.675 70.7829 357.343 70.9201C357.012 71.0572 356.72 71.2458 356.469 71.4858C356.229 71.7144 356.035 71.9772 355.886 72.2744C355.749 72.5715 355.68 72.8801 355.68 73.2001C355.68 73.5201 355.743 73.8286 355.869 74.1258C355.995 74.4229 356.172 74.6915 356.4 74.9315C356.64 75.1601 356.932 75.3429 357.275 75.4801C357.617 75.6172 358 75.6858 358.423 75.6858C358.857 75.6858 359.24 75.6172 359.572 75.4801C359.915 75.3429 360.2 75.1601 360.429 74.9315C360.669 74.6915 360.852 74.4229 360.977 74.1258C361.103 73.8286 361.166 73.5201 361.166 73.2001C361.166 72.8801 361.092 72.5715 360.943 72.2744C360.806 71.9772 360.612 71.7144 360.36 71.4858C360.12 71.2458 359.835 71.0572 359.503 70.9201C359.172 70.7829 358.812 70.7144 358.423 70.7144ZM358.423 65.7429C357.737 65.7429 357.195 65.9315 356.795 66.3086C356.395 66.6858 356.195 67.1544 356.195 67.7144C356.195 68.2744 356.395 68.7429 356.795 69.1201C357.195 69.4972 357.737 69.6858 358.423 69.6858C359.109 69.6858 359.652 69.4972 360.052 69.1201C360.452 68.7429 360.652 68.2744 360.652 67.7144C360.652 67.1544 360.452 66.6858 360.052 66.3086C359.652 65.9315 359.109 65.7429 358.423 65.7429ZM366.82 69.8572C366.455 69.8572 366.112 69.7886 365.792 69.6515C365.472 69.5029 365.192 69.3086 364.952 69.0686C364.712 68.8286 364.518 68.5486 364.369 68.2286C364.232 67.9086 364.163 67.5658 364.163 67.2001C364.163 66.8344 364.232 66.4915 364.369 66.1715C364.518 65.8515 364.712 65.5715 364.952 65.3315C365.192 65.0915 365.472 64.9029 365.792 64.7658C366.112 64.6172 366.455 64.5429 366.82 64.5429C367.186 64.5429 367.529 64.6172 367.849 64.7658C368.169 64.9029 368.449 65.0915 368.689 65.3315C368.929 65.5715 369.118 65.8515 369.255 66.1715C369.403 66.4915 369.478 66.8344 369.478 67.2001C369.478 67.5658 369.403 67.9086 369.255 68.2286C369.118 68.5486 368.929 68.8286 368.689 69.0686C368.449 69.3086 368.169 69.5029 367.849 69.6515C367.529 69.7886 367.186 69.8572 366.82 69.8572ZM373.163 64.7144H374.363L366.82 76.7144H365.62L373.163 64.7144ZM366.82 68.8286C367.255 68.8286 367.62 68.6801 367.918 68.3829C368.215 68.0744 368.363 67.6801 368.363 67.2001C368.363 66.7201 368.215 66.3315 367.918 66.0344C367.62 65.7258 367.255 65.5715 366.82 65.5715C366.386 65.5715 366.02 65.7258 365.723 66.0344C365.426 66.3315 365.278 66.7201 365.278 67.2001C365.278 67.6801 365.426 68.0744 365.723 68.3829C366.02 68.6801 366.386 68.8286 366.82 68.8286ZM373.163 76.8858C372.798 76.8858 372.455 76.8172 372.135 76.6801C371.815 76.5315 371.535 76.3372 371.295 76.0972C371.055 75.8572 370.86 75.5772 370.712 75.2572C370.575 74.9372 370.506 74.5944 370.506 74.2286C370.506 73.8629 370.575 73.5201 370.712 73.2001C370.86 72.8801 371.055 72.6001 371.295 72.3601C371.535 72.1201 371.815 71.9315 372.135 71.7944C372.455 71.6458 372.798 71.5715 373.163 71.5715C373.529 71.5715 373.872 71.6458 374.192 71.7944C374.512 71.9315 374.792 72.1201 375.032 72.3601C375.272 72.6001 375.46 72.8801 375.598 73.2001C375.746 73.5201 375.82 73.8629 375.82 74.2286C375.82 74.5944 375.746 74.9372 375.598 75.2572C375.46 75.5772 375.272 75.8572 375.032 76.0972C374.792 76.3372 374.512 76.5315 374.192 76.6801C373.872 76.8172 373.529 76.8858 373.163 76.8858ZM373.163 75.8572C373.598 75.8572 373.963 75.7086 374.26 75.4115C374.558 75.1029 374.706 74.7086 374.706 74.2286C374.706 73.7486 374.558 73.3601 374.26 73.0629C373.963 72.7544 373.598 72.6001 373.163 72.6001C372.729 72.6001 372.363 72.7544 372.066 73.0629C371.769 73.3601 371.62 73.7486 371.62 74.2286C371.62 74.7086 371.769 75.1029 372.066 75.4115C372.363 75.7086 372.729 75.8572 373.163 75.8572Z" fill="#D20028"/>
<path d="M442.686 72.2572C442.583 72.2915 442.469 72.3201 442.343 72.3429C442.229 72.3658 442.092 72.3886 441.932 72.4115C441.772 72.4229 441.594 72.4286 441.4 72.4286C440.817 72.4286 440.28 72.3315 439.789 72.1372C439.297 71.9315 438.869 71.6515 438.503 71.2972C438.149 70.9429 437.869 70.5258 437.663 70.0458C437.469 69.5658 437.372 69.0458 437.372 68.4858C437.372 67.9258 437.474 67.4058 437.68 66.9258C437.886 66.4458 438.166 66.0286 438.52 65.6744C438.886 65.3201 439.32 65.0458 439.823 64.8515C440.337 64.6458 440.892 64.5429 441.486 64.5429C442.092 64.5429 442.646 64.6458 443.149 64.8515C443.652 65.0458 444.08 65.3201 444.434 65.6744C444.8 66.0286 445.086 66.4458 445.292 66.9258C445.497 67.4058 445.6 67.9258 445.6 68.4858C445.6 68.8515 445.554 69.1944 445.463 69.5144C445.383 69.8229 445.286 70.0915 445.172 70.3201C445.046 70.5944 444.903 70.8401 444.743 71.0572L441.143 76.7144H439.857L442.686 72.2572ZM438.657 68.4858C438.657 68.8972 438.72 69.2744 438.846 69.6172C438.983 69.9486 439.177 70.2344 439.429 70.4744C439.68 70.7144 439.977 70.9029 440.32 71.0401C440.674 71.1658 441.063 71.2286 441.486 71.2286C441.92 71.2286 442.309 71.1658 442.652 71.0401C442.994 70.9029 443.292 70.7144 443.543 70.4744C443.794 70.2344 443.983 69.9486 444.109 69.6172C444.246 69.2744 444.314 68.8972 444.314 68.4858C444.314 68.0744 444.246 67.7029 444.109 67.3715C443.983 67.0286 443.794 66.7372 443.543 66.4972C443.292 66.2572 442.994 66.0744 442.652 65.9486C442.309 65.8115 441.92 65.7429 441.486 65.7429C441.063 65.7429 440.674 65.8115 440.32 65.9486C439.977 66.0744 439.68 66.2572 439.429 66.4972C439.177 66.7372 438.983 67.0286 438.846 67.3715C438.72 67.7029 438.657 68.0744 438.657 68.4858ZM448.083 75.1715L449.283 75.8572L447.312 78.9429L446.54 78.5144L448.083 75.1715ZM452.45 74.2286C452.667 74.5029 452.924 74.7429 453.221 74.9486C453.484 75.1429 453.804 75.3144 454.181 75.4629C454.57 75.6115 455.021 75.6858 455.536 75.6858C455.97 75.6858 456.358 75.6229 456.701 75.4972C457.044 75.3601 457.341 75.1715 457.593 74.9315C457.844 74.6915 458.033 74.4058 458.158 74.0744C458.296 73.7315 458.364 73.3544 458.364 72.9429C458.364 72.1201 458.113 71.4572 457.61 70.9544C457.107 70.4515 456.444 70.2001 455.621 70.2001C455.164 70.2001 454.77 70.2686 454.438 70.4058C454.107 70.5315 453.833 70.6744 453.616 70.8344C453.353 71.0286 453.136 71.2458 452.964 71.4858H452.021L452.45 64.7144H458.878V65.9144H453.564L453.307 69.6858C453.478 69.5601 453.684 69.4458 453.924 69.3429C454.118 69.2515 454.358 69.1715 454.644 69.1029C454.93 69.0344 455.256 69.0001 455.621 69.0001C456.204 69.0001 456.741 69.1029 457.233 69.3086C457.724 69.5029 458.147 69.7772 458.501 70.1315C458.867 70.4858 459.147 70.9029 459.341 71.3829C459.547 71.8629 459.65 72.3829 459.65 72.9429C459.65 73.5258 459.553 74.0572 459.358 74.5372C459.164 75.0172 458.884 75.4344 458.518 75.7886C458.164 76.1315 457.73 76.4001 457.216 76.5944C456.713 76.7886 456.153 76.8858 455.536 76.8858C454.873 76.8858 454.296 76.7944 453.804 76.6115C453.313 76.4172 452.901 76.2058 452.57 75.9772C452.181 75.7144 451.856 75.4172 451.593 75.0858L452.45 74.2286ZM464.029 69.8572C463.664 69.8572 463.321 69.7886 463.001 69.6515C462.681 69.5029 462.401 69.3086 462.161 69.0686C461.921 68.8286 461.727 68.5486 461.578 68.2286C461.441 67.9086 461.372 67.5658 461.372 67.2001C461.372 66.8344 461.441 66.4915 461.578 66.1715C461.727 65.8515 461.921 65.5715 462.161 65.3315C462.401 65.0915 462.681 64.9029 463.001 64.7658C463.321 64.6172 463.664 64.5429 464.029 64.5429C464.395 64.5429 464.738 64.6172 465.058 64.7658C465.378 64.9029 465.658 65.0915 465.898 65.3315C466.138 65.5715 466.327 65.8515 466.464 66.1715C466.612 66.4915 466.687 66.8344 466.687 67.2001C466.687 67.5658 466.612 67.9086 466.464 68.2286C466.327 68.5486 466.138 68.8286 465.898 69.0686C465.658 69.3086 465.378 69.5029 465.058 69.6515C464.738 69.7886 464.395 69.8572 464.029 69.8572ZM470.372 64.7144H471.572L464.029 76.7144H462.829L470.372 64.7144ZM464.029 68.8286C464.464 68.8286 464.829 68.6801 465.127 68.3829C465.424 68.0744 465.572 67.6801 465.572 67.2001C465.572 66.7201 465.424 66.3315 465.127 66.0344C464.829 65.7258 464.464 65.5715 464.029 65.5715C463.595 65.5715 463.229 65.7258 462.932 66.0344C462.635 66.3315 462.487 66.7201 462.487 67.2001C462.487 67.6801 462.635 68.0744 462.932 68.3829C463.229 68.6801 463.595 68.8286 464.029 68.8286ZM470.372 76.8858C470.007 76.8858 469.664 76.8172 469.344 76.6801C469.024 76.5315 468.744 76.3372 468.504 76.0972C468.264 75.8572 468.069 75.5772 467.921 75.2572C467.784 74.9372 467.715 74.5944 467.715 74.2286C467.715 73.8629 467.784 73.5201 467.921 73.2001C468.069 72.8801 468.264 72.6001 468.504 72.3601C468.744 72.1201 469.024 71.9315 469.344 71.7944C469.664 71.6458 470.007 71.5715 470.372 71.5715C470.738 71.5715 471.081 71.6458 471.401 71.7944C471.721 71.9315 472.001 72.1201 472.241 72.3601C472.481 72.6001 472.669 72.8801 472.807 73.2001C472.955 73.5201 473.029 73.8629 473.029 74.2286C473.029 74.5944 472.955 74.9372 472.807 75.2572C472.669 75.5772 472.481 75.8572 472.241 76.0972C472.001 76.3372 471.721 76.5315 471.401 76.6801C471.081 76.8172 470.738 76.8858 470.372 76.8858ZM470.372 75.8572C470.807 75.8572 471.172 75.7086 471.469 75.4115C471.767 75.1029 471.915 74.7086 471.915 74.2286C471.915 73.7486 471.767 73.3601 471.469 73.0629C471.172 72.7544 470.807 72.6001 470.372 72.6001C469.938 72.6001 469.572 72.7544 469.275 73.0629C468.978 73.3601 468.829 73.7486 468.829 74.2286C468.829 74.7086 468.978 75.1029 469.275 75.4115C469.572 75.7086 469.938 75.8572 470.372 75.8572Z" fill="#F97C83"/>
<path d="M484.05 147.343H477.878V146.143H485.421V147.343L480.107 158.143H478.736L484.05 147.343ZM486.022 156.6L487.222 157.286L485.251 160.372L484.479 159.943L486.022 156.6ZM494.092 158.314C493.463 158.314 492.857 158.177 492.274 157.903C491.703 157.617 491.194 157.212 490.749 156.686C490.303 156.149 489.943 155.497 489.669 154.732C489.406 153.966 489.274 153.103 489.274 152.143C489.274 151.183 489.406 150.32 489.669 149.554C489.943 148.789 490.303 148.143 490.749 147.617C491.194 147.08 491.703 146.674 492.274 146.4C492.857 146.114 493.457 145.972 494.074 145.972C494.692 145.972 495.286 146.114 495.857 146.4C496.44 146.674 496.954 147.08 497.4 147.617C497.846 148.143 498.2 148.789 498.463 149.554C498.737 150.32 498.874 151.183 498.874 152.143C498.874 153.103 498.737 153.966 498.463 154.732C498.2 155.497 497.846 156.149 497.4 156.686C496.966 157.212 496.457 157.617 495.874 157.903C495.303 158.177 494.709 158.314 494.092 158.314ZM494.092 157.114C494.537 157.114 494.972 157.012 495.394 156.806C495.817 156.589 496.189 156.274 496.509 155.863C496.84 155.44 497.103 154.92 497.297 154.303C497.492 153.674 497.589 152.954 497.589 152.143C497.589 151.332 497.486 150.617 497.28 150C497.086 149.372 496.823 148.852 496.492 148.44C496.172 148.017 495.8 147.703 495.377 147.497C494.954 147.28 494.52 147.172 494.074 147.172C493.629 147.172 493.194 147.28 492.772 147.497C492.349 147.703 491.972 148.017 491.64 148.44C491.32 148.852 491.057 149.372 490.852 150C490.657 150.617 490.56 151.332 490.56 152.143C490.56 152.954 490.657 153.674 490.852 154.303C491.057 154.92 491.32 155.44 491.64 155.863C491.972 156.274 492.349 156.589 492.772 156.806C493.194 157.012 493.634 157.114 494.092 157.114ZM503.24 151.286C502.875 151.286 502.532 151.217 502.212 151.08C501.892 150.932 501.612 150.737 501.372 150.497C501.132 150.257 500.938 149.977 500.789 149.657C500.652 149.337 500.583 148.994 500.583 148.629C500.583 148.263 500.652 147.92 500.789 147.6C500.938 147.28 501.132 147 501.372 146.76C501.612 146.52 501.892 146.332 502.212 146.194C502.532 146.046 502.875 145.972 503.24 145.972C503.606 145.972 503.949 146.046 504.269 146.194C504.589 146.332 504.869 146.52 505.109 146.76C505.349 147 505.538 147.28 505.675 147.6C505.823 147.92 505.898 148.263 505.898 148.629C505.898 148.994 505.823 149.337 505.675 149.657C505.538 149.977 505.349 150.257 505.109 150.497C504.869 150.737 504.589 150.932 504.269 151.08C503.949 151.217 503.606 151.286 503.24 151.286ZM509.583 146.143H510.783L503.24 158.143H502.04L509.583 146.143ZM503.24 150.257C503.675 150.257 504.04 150.109 504.338 149.812C504.635 149.503 504.783 149.109 504.783 148.629C504.783 148.149 504.635 147.76 504.338 147.463C504.04 147.154 503.675 147 503.24 147C502.806 147 502.44 147.154 502.143 147.463C501.846 147.76 501.698 148.149 501.698 148.629C501.698 149.109 501.846 149.503 502.143 149.812C502.44 150.109 502.806 150.257 503.24 150.257ZM509.583 158.314C509.218 158.314 508.875 158.246 508.555 158.109C508.235 157.96 507.955 157.766 507.715 157.526C507.475 157.286 507.28 157.006 507.132 156.686C506.995 156.366 506.926 156.023 506.926 155.657C506.926 155.292 506.995 154.949 507.132 154.629C507.28 154.309 507.475 154.029 507.715 153.789C507.955 153.549 508.235 153.36 508.555 153.223C508.875 153.074 509.218 153 509.583 153C509.949 153 510.292 153.074 510.612 153.223C510.932 153.36 511.212 153.549 511.452 153.789C511.692 154.029 511.88 154.309 512.018 154.629C512.166 154.949 512.24 155.292 512.24 155.657C512.24 156.023 512.166 156.366 512.018 156.686C511.88 157.006 511.692 157.286 511.452 157.526C511.212 157.766 510.932 157.96 510.612 158.109C510.292 158.246 509.949 158.314 509.583 158.314ZM509.583 157.286C510.018 157.286 510.383 157.137 510.68 156.84C510.978 156.532 511.126 156.137 511.126 155.657C511.126 155.177 510.978 154.789 510.68 154.492C510.383 154.183 510.018 154.029 509.583 154.029C509.149 154.029 508.783 154.183 508.486 154.492C508.189 154.789 508.04 155.177 508.04 155.657C508.04 156.137 508.189 156.532 508.486 156.84C508.783 157.137 509.149 157.286 509.583 157.286Z" fill="#FD5660"/>
<path d="M295 309.286L103.638 437.857H37.8571" stroke="#FC2C38" stroke-width="1.54286"/>
<circle cx="37" cy="438" r="4" fill="#FC2C38"/>
<defs>
<filter id="filter0_ddddd" x="28" y="157" width="526" height="594" filterUnits="userSpaceOnUse" color-interpolation-filters="sRGB">
<feFlood flood-opacity="0" result="BackgroundImageFix"/>
<feColorMatrix in="SourceAlpha" type="matrix" values="0 0 0 0 0 0 0 0 0 0 0 0 0 0 0 0 0 0 127 0"/>
<feOffset dy="5.56453"/>
<feGaussianBlur stdDeviation="2.09528"/>
<feColorMatrix type="matrix" values="0 0 0 0 0 0 0 0 0 0 0 0 0 0 0 0 0 0 0.0948954 0"/>
<feBlend mode="normal" in2="BackgroundImageFix" result="effect1_dropShadow"/>
<feColorMatrix in="SourceAlpha" type="matrix" values="0 0 0 0 0 0 0 0 0 0 0 0 0 0 0 0 0 0 127 0"/>
<feOffset dy="14.0731"/>
<feGaussianBlur stdDeviation="5.29913"/>
<feColorMatrix type="matrix" values="0 0 0 0 0 0 0 0 0 0 0 0 0 0 0 0 0 0 0.129496 0"/>
<feBlend mode="normal" in2="effect1_dropShadow" result="effect2_dropShadow"/>
<feColorMatrix in="SourceAlpha" type="matrix" values="0 0 0 0 0 0 0 0 0 0 0 0 0 0 0 0 0 0 127 0"/>
<feOffset dy="28.7078"/>
<feGaussianBlur stdDeviation="10.8097"/>
<feColorMatrix type="matrix" values="0 0 0 0 0 0 0 0 0 0 0 0 0 0 0 0 0 0 0.155112 0"/>
<feBlend mode="normal" in2="effect2_dropShadow" result="effect3_dropShadow"/>
<feColorMatrix in="SourceAlpha" type="matrix" values="0 0 0 0 0 0 0 0 0 0 0 0 0 0 0 0 0 0 127 0"/>
<feOffset dy="59.1327"/>
<feGaussianBlur stdDeviation="22.266"/>
<feColorMatrix type="matrix" values="0 0 0 0 0 0 0 0 0 0 0 0 0 0 0 0 0 0 0.184544 0"/>
<feBlend mode="normal" in2="effect3_dropShadow" result="effect4_dropShadow"/>
<feColorMatrix in="SourceAlpha" type="matrix" values="0 0 0 0 0 0 0 0 0 0 0 0 0 0 0 0 0 0 127 0"/>
<feOffset dy="162"/>
<feGaussianBlur stdDeviation="61"/>
<feColorMatrix type="matrix" values="0 0 0 0 0 0 0 0 0 0 0 0 0 0 0 0 0 0 0.26 0"/>
<feBlend mode="normal" in2="effect4_dropShadow" result="effect5_dropShadow"/>
<feBlend mode="normal" in="SourceGraphic" in2="effect5_dropShadow" result="shape"/>
</filter>
<filter id="filter1_d" x="288.143" y="140.836" width="140.299" height="176.145" filterUnits="userSpaceOnUse" color-interpolation-filters="sRGB">
<feFlood flood-opacity="0" result="BackgroundImageFix"/>
<feColorMatrix in="SourceAlpha" type="matrix" values="0 0 0 0 0 0 0 0 0 0 0 0 0 0 0 0 0 0 127 0"/>
<feOffset dx="-1.71429" dy="3.42857"/>
<feGaussianBlur stdDeviation="2.57143"/>
<feColorMatrix type="matrix" values="0 0 0 0 0 0 0 0 0 0 0 0 0 0 0 0 0 0 0.25 0"/>
<feBlend mode="normal" in2="BackgroundImageFix" result="effect1_dropShadow"/>
<feBlend mode="normal" in="SourceGraphic" in2="effect1_dropShadow" result="shape"/>
</filter>
<linearGradient id="paint0_linear" x1="379.857" y1="159.714" x2="295" y2="308.429" gradientUnits="userSpaceOnUse">
<stop stop-color="#F97C83"/>
<stop offset="1" stop-color="#FFB5B9"/>
</linearGradient>
<linearGradient id="paint1_linear" x1="373.857" y1="267.286" x2="373.857" y2="461.857" gradientUnits="userSpaceOnUse">
<stop stop-color="#333333"/>
<stop offset="1"/>
</linearGradient>
</defs>
</svg>
