<svg width="112" height="26" viewBox="0 0 112 26" fill="none" xmlns="http://www.w3.org/2000/svg">
<path d="M24.1623 1.8377C22.3246 -2.10957e-06 19.3979 0 13.5445 0H12.4555C6.60209 0 3.60732 -2.10957e-06 1.83768 1.8377C-1.24951e-05 3.67539 0 6.60209 0 12.4555V13.5445C0 19.3979 -1.24951e-05 22.3927 1.83768 24.1623C3.67538 26 6.60209 26 12.4555 26H13.5445C19.3979 26 22.3927 26 24.1623 24.1623C26 22.3246 26 19.3979 26 13.5445V12.4555C26 6.60209 26 3.67539 24.1623 1.8377Z" fill="#2787F5"/>
<path d="M21.0983 18.4452H19.1925C18.4438 18.4452 18.2396 17.9007 16.9464 16.6075C15.7893 15.5185 15.3129 15.3824 15.0406 15.3824C14.6323 15.3824 14.5642 15.5185 14.5642 16.063V17.7646C14.5642 18.241 14.4281 18.5133 13.203 18.5133C11.1611 18.5133 8.98306 17.2881 7.41761 15.0421C5.03541 11.775 4.42285 9.25673 4.42285 8.78029C4.42285 8.50803 4.55898 8.23578 5.10348 8.23578H7.00923C7.48567 8.23578 7.68987 8.43997 7.82599 8.98448C8.77887 11.707 10.3443 14.0211 10.9569 14.0211C11.2291 14.0211 11.2972 13.885 11.2972 13.2724V10.4819C11.2291 9.18866 10.5485 9.1206 10.5485 8.64416C10.5485 8.43997 10.7527 8.23578 11.0249 8.23578H14.0197C14.4281 8.23578 14.5642 8.43997 14.5642 8.91641V12.6599C14.5642 13.0682 14.7684 13.2044 14.8365 13.2044C15.1087 13.2044 15.2448 13.0683 15.7213 12.5918C17.0825 11.0944 18.0354 8.71222 18.0354 8.71222C18.1715 8.43997 18.3757 8.16772 18.8522 8.16772H20.7579C21.3024 8.16772 21.4386 8.43998 21.3024 8.84835C21.0302 9.93736 18.7161 13.2044 18.7161 13.2044C18.5119 13.5447 18.4438 13.6808 18.7161 14.0211C18.9202 14.2934 19.6009 14.8379 20.0092 15.3824C20.826 16.2672 21.4386 17.084 21.6427 17.6285C21.915 18.173 21.6428 18.4452 21.0983 18.4452Z" fill="white"/>
<path d="M47.8798 14.5424C47.7323 15.1751 47.4836 15.7892 47.1334 16.3846C46.7833 16.9615 46.3502 17.4826 45.8343 17.9478C45.3183 18.3944 44.7286 18.7573 44.0652 19.0364C43.4018 19.297 42.6923 19.4272 41.9368 19.4272C41.0706 19.4272 40.2506 19.2597 39.4766 18.9248C38.7211 18.5712 38.0484 18.0967 37.4588 17.5012C36.8875 16.9057 36.4268 16.2172 36.0767 15.4356C35.745 14.6354 35.5791 13.7794 35.5791 12.8675C35.5791 11.9557 35.745 11.109 36.0767 10.3274C36.4268 9.52723 36.8875 8.8294 37.4588 8.23391C38.0484 7.63842 38.7211 7.17319 39.4766 6.83823C40.2506 6.48466 41.0706 6.30788 41.9368 6.30788C42.6923 6.30788 43.4018 6.44744 44.0652 6.72658C44.7286 6.9871 45.3183 7.34998 45.8343 7.8152C46.3502 8.26182 46.7833 8.78287 47.1334 9.37836C47.4836 9.95524 47.7323 10.56 47.8798 11.1927H44.7009C44.5535 10.8578 44.3508 10.56 44.0928 10.2995C43.8717 10.0762 43.5861 9.8715 43.2359 9.68541C42.8858 9.48071 42.4527 9.37836 41.9368 9.37836C41.0338 9.37836 40.2782 9.69471 39.6701 10.3274C39.062 10.9601 38.7579 11.8068 38.7579 12.8675C38.7579 13.9283 39.062 14.775 39.6701 15.4077C40.2782 16.0404 41.0338 16.3567 41.9368 16.3567C42.4527 16.3567 42.8858 16.2637 43.2359 16.0776C43.5861 15.8915 43.8717 15.6868 44.0928 15.4635C44.3508 15.203 44.5535 14.8959 44.7009 14.5424H47.8798Z" fill="#2787F5"/>
<path d="M52.5789 12.8675C52.5789 13.9283 52.883 14.775 53.4911 15.4077C54.0992 16.0404 54.8548 16.3567 55.7577 16.3567C56.6607 16.3567 57.4162 16.0404 58.0244 15.4077C58.6325 14.775 58.9366 13.9283 58.9366 12.8675C58.9366 11.8068 58.6325 10.9601 58.0244 10.3274C57.4162 9.69471 56.6607 9.37836 55.7577 9.37836C54.8548 9.37836 54.0992 9.69471 53.4911 10.3274C52.883 10.9601 52.5789 11.8068 52.5789 12.8675ZM62.1154 12.8675C62.1154 13.7794 61.9403 14.6354 61.5902 15.4356C61.2585 16.2172 60.7978 16.9057 60.2081 17.5012C59.6368 18.0967 58.9642 18.5712 58.1902 18.9248C57.4347 19.2597 56.6238 19.4272 55.7577 19.4272C54.8916 19.4272 54.0716 19.2597 53.2976 18.9248C52.542 18.5712 51.8694 18.0967 51.2797 17.5012C50.7085 16.9057 50.2478 16.2172 49.8976 15.4356C49.5659 14.6354 49.4001 13.7794 49.4001 12.8675C49.4001 11.9557 49.5659 11.109 49.8976 10.3274C50.2478 9.52723 50.7085 8.8294 51.2797 8.23391C51.8694 7.63842 52.542 7.17319 53.2976 6.83823C54.0716 6.48466 54.8916 6.30788 55.7577 6.30788C56.6238 6.30788 57.4347 6.48466 58.1902 6.83823C58.9642 7.17319 59.6368 7.63842 60.2081 8.23391C60.7978 8.8294 61.2585 9.52723 61.5902 10.3274C61.9403 11.109 62.1154 11.9557 62.1154 12.8675Z" fill="#2787F5"/>
<path d="M70.395 6.30788C71.04 6.30788 71.5928 6.40092 72.0535 6.58701C72.5142 6.75449 72.892 6.94058 73.1868 7.14528C73.5185 7.3872 73.7857 7.66633 73.9885 7.98269C74.2833 7.66633 74.6242 7.3872 75.0112 7.14528C75.3429 6.94058 75.7391 6.75449 76.1998 6.58701C76.6605 6.40092 77.1673 6.30788 77.7201 6.30788C79.1022 6.30788 80.2079 6.75449 81.0371 7.64772C81.8664 8.54096 82.281 9.8622 82.281 11.6114V19.2877H79.1022V11.8906C79.1022 11.109 78.8903 10.4949 78.4664 10.0483C78.061 9.60167 77.5819 9.37836 77.0291 9.37836C76.4762 9.37836 75.9879 9.60167 75.564 10.0483C75.1586 10.4949 74.9559 11.109 74.9559 11.8906V19.2877H71.7771V11.8906C71.7771 11.109 71.5652 10.4949 71.1413 10.0483C70.7359 9.60167 70.2568 9.37836 69.704 9.37836C69.1511 9.37836 68.6628 9.60167 68.2389 10.0483C67.8335 10.4949 67.6308 11.109 67.6308 11.8906V19.2877H64.452V6.44744H66.8015L67.3544 7.70355C67.6124 7.44302 67.898 7.21041 68.2113 7.00571C68.4693 6.83823 68.7826 6.68006 69.1511 6.53118C69.5197 6.38231 69.9343 6.30788 70.395 6.30788Z" fill="#2787F5"/>
<path d="M91.6793 19.4272C91.1265 19.4272 90.6289 19.3621 90.1866 19.2318C89.7444 19.083 89.3666 18.9155 89.0533 18.7294C88.6848 18.5247 88.3623 18.2921 88.0858 18.0315L87.533 19.2877H85.1834V1.70215H88.3623V7.56398C88.6203 7.34068 88.9151 7.13598 89.2468 6.94989C89.5416 6.80101 89.8826 6.66145 90.2696 6.53118C90.675 6.38231 91.1449 6.30788 91.6793 6.30788C92.4717 6.30788 93.2272 6.47536 93.9459 6.81032C94.6646 7.12667 95.2912 7.58259 95.8256 8.17808C96.3784 8.75496 96.8115 9.44349 97.1248 10.2437C97.4565 11.0439 97.6223 11.9185 97.6223 12.8675C97.6223 13.8166 97.4565 14.6912 97.1248 15.4914C96.8115 16.2916 96.3784 16.9894 95.8256 17.5849C95.2912 18.1618 94.6646 18.6177 93.9459 18.9527C93.2272 19.269 92.4717 19.4272 91.6793 19.4272ZM88.0858 12.8675C88.0858 13.9283 88.3899 14.775 88.998 15.4077C89.6062 16.0404 90.3617 16.3567 91.2647 16.3567C92.1676 16.3567 92.9232 16.0404 93.5313 15.4077C94.1394 14.775 94.4435 13.9283 94.4435 12.8675C94.4435 11.8068 94.1394 10.9601 93.5313 10.3274C92.9232 9.69471 92.1676 9.37836 91.2647 9.37836C90.3617 9.37836 89.6062 9.69471 88.998 10.3274C88.3899 10.9601 88.0858 11.8068 88.0858 12.8675Z" fill="#2787F5"/>
<path d="M102.464 12.8675C102.464 13.9283 102.768 14.775 103.376 15.4077C103.984 16.0404 104.74 16.3567 105.643 16.3567C106.546 16.3567 107.301 16.0404 107.909 15.4077C108.518 14.775 108.822 13.9283 108.822 12.8675C108.822 11.8068 108.518 10.9601 107.909 10.3274C107.301 9.69471 106.546 9.37836 105.643 9.37836C104.74 9.37836 103.984 9.69471 103.376 10.3274C102.768 10.9601 102.464 11.8068 102.464 12.8675ZM112 12.8675C112 13.7794 111.825 14.6354 111.475 15.4356C111.144 16.2172 110.683 16.9057 110.093 17.5012C109.522 18.0967 108.849 18.5712 108.075 18.9248C107.32 19.2597 106.509 19.4272 105.643 19.4272C104.777 19.4272 103.957 19.2597 103.183 18.9248C102.427 18.5712 101.755 18.0967 101.165 17.5012C100.594 16.9057 100.133 16.2172 99.7827 15.4356C99.451 14.6354 99.2852 13.7794 99.2852 12.8675C99.2852 11.9557 99.451 11.109 99.7827 10.3274C100.133 9.52723 100.594 8.8294 101.165 8.23391C101.755 7.63842 102.427 7.17319 103.183 6.83823C103.957 6.48466 104.777 6.30788 105.643 6.30788C106.509 6.30788 107.32 6.48466 108.075 6.83823C108.849 7.17319 109.522 7.63842 110.093 8.23391C110.683 8.8294 111.144 9.52723 111.475 10.3274C111.825 11.109 112 11.9557 112 12.8675Z" fill="#2787F5"/>
</svg>
