<svg width="62" height="61" viewBox="0 0 62 61" fill="none" xmlns="http://www.w3.org/2000/svg">
<rect x="0.294922" y="0.0644531" width="60.9188" height="60.9188" rx="14.5045" fill="#005FF9"/>
<path fill-rule="evenodd" clip-rule="evenodd" d="M45.8163 35.9623C45.8163 31.5723 42.1796 28.0083 37.7 28.0083H21.4676C16.9883 28.0083 13.3516 31.5723 13.3516 35.9623C13.3516 40.352 16.9883 43.916 21.4676 43.916H37.7C42.1796 43.916 45.8163 40.352 45.8163 35.9623Z" fill="#FFBE3F"/>
<path fill-rule="evenodd" clip-rule="evenodd" d="M29.8837 15.3469C35.9756 15.3469 40.9217 20.2928 40.9217 26.3849C40.9217 32.4771 35.9756 37.4229 29.8837 37.4229C23.7916 37.4229 18.8457 32.4771 18.8457 26.3849C18.8457 20.2928 23.7916 15.3469 29.8837 15.3469Z" fill="#F3A23A"/>
<mask id="mask0" mask-type="alpha" maskUnits="userSpaceOnUse" x="13" y="28" width="17" height="16">
<path fill-rule="evenodd" clip-rule="evenodd" d="M21.3053 28.0081C25.6953 28.0081 29.2593 31.572 29.2593 35.962C29.2593 40.3518 25.6953 43.9158 21.3053 43.9158C16.9155 43.9158 13.3516 40.3518 13.3516 35.962C13.3516 31.572 16.9155 28.0081 21.3053 28.0081Z" fill="#F3C03A"/>
</mask>
<g mask="url(#mask0)">
<path fill-rule="evenodd" clip-rule="evenodd" d="M29.8827 15.3469C35.9746 15.3469 40.9207 20.2928 40.9207 26.3849C40.9207 32.4771 35.9746 37.4229 29.8827 37.4229C23.7906 37.4229 18.8447 32.4771 18.8447 26.3849C18.8447 20.2928 23.7906 15.3469 29.8827 15.3469Z" fill="#FFCF38"/>
</g>
<path fill-rule="evenodd" clip-rule="evenodd" d="M37.5242 21.8401C43.6164 21.8401 48.5623 26.786 48.5623 32.878C48.5623 38.9702 43.6164 43.9161 37.5242 43.9161C31.4323 43.9161 26.4863 38.9702 26.4863 32.878C26.4863 26.786 31.4323 21.8401 37.5242 21.8401Z" fill="#F3823A"/>
<mask id="mask1" mask-type="alpha" maskUnits="userSpaceOnUse" x="26" y="21" width="23" height="23">
<path fill-rule="evenodd" clip-rule="evenodd" d="M37.5242 21.8401C43.6164 21.8401 48.5623 26.786 48.5623 32.878C48.5623 38.9702 43.6164 43.9161 37.5242 43.9161C31.4323 43.9161 26.4863 38.9702 26.4863 32.878C26.4863 26.786 31.4323 21.8401 37.5242 21.8401Z" fill="#F3823A"/>
</mask>
<g mask="url(#mask1)">
<path fill-rule="evenodd" clip-rule="evenodd" d="M29.8798 15.3472C35.9717 15.3472 40.9178 20.293 40.9178 26.3852C40.9178 32.4773 35.9717 37.4232 29.8798 37.4232C23.7877 37.4232 18.8418 32.4773 18.8418 26.3852C18.8418 20.293 23.7877 15.3472 29.8798 15.3472Z" fill="#F26C32"/>
</g>
<g filter="url(#filter0_i)">
<path fill-rule="evenodd" clip-rule="evenodd" d="M40.0718 22.1359C38.4061 18.1504 34.4691 15.3469 29.8825 15.3469C23.7904 15.3469 18.8445 20.2928 18.8445 26.3849C18.8445 27.0648 18.9061 27.7303 19.024 28.3763C15.7382 29.3941 13.3535 32.4073 13.3535 35.9622C13.3535 40.352 16.9902 43.916 21.4696 43.916H37.7019C38.0889 43.916 38.4697 43.8894 38.8423 43.8379C44.3141 43.1857 48.5624 38.5241 48.5624 32.8778C48.5624 27.6625 44.9375 23.2871 40.0718 22.1359Z" fill="#E2E2E2" fill-opacity="0.09"/>
</g>
<defs>
<filter id="filter0_i" x="13.3535" y="15.3469" width="35.2089" height="28.569" filterUnits="userSpaceOnUse" color-interpolation-filters="sRGB">
<feFlood flood-opacity="0" result="BackgroundImageFix"/>
<feBlend mode="normal" in="SourceGraphic" in2="BackgroundImageFix" result="shape"/>
<feColorMatrix in="SourceAlpha" type="matrix" values="0 0 0 0 0 0 0 0 0 0 0 0 0 0 0 0 0 0 127 0" result="hardAlpha"/>
<feOffset/>
<feGaussianBlur stdDeviation="5.64402"/>
<feComposite in2="hardAlpha" operator="arithmetic" k2="-1" k3="1"/>
<feColorMatrix type="matrix" values="0 0 0 0 1 0 0 0 0 1 0 0 0 0 1 0 0 0 0.85 0"/>
<feBlend mode="normal" in2="shape" result="effect1_innerShadow"/>
</filter>
</defs>
</svg>
