<svg width="61" height="62" viewBox="0 0 61 62" fill="none" xmlns="http://www.w3.org/2000/svg">
<g filter="url(#filter0_i)">
<rect y="0.788818" width="60.9296" height="60.9296" rx="14.507" fill="#005FF9"/>
<g filter="url(#filter1_f)">
<circle cx="30.4651" cy="31.2537" r="17.4085" fill="#466EFE" fill-opacity="0.4"/>
</g>
<mask id="mask0" mask-type="alpha" maskUnits="userSpaceOnUse" x="13" y="13" width="35" height="36">
<circle cx="30.4651" cy="31.2537" r="17.4085" fill="white"/>
</mask>
<g mask="url(#mask0)">
<g filter="url(#filter2_f)">
<circle cx="28.1436" cy="28.9327" r="19.7296" fill="white"/>
</g>
<g filter="url(#filter3_f)">
<circle cx="27.5633" cy="28.3524" r="16.2479" fill="white"/>
</g>
<g filter="url(#filter4_f)">
<circle cx="27.5633" cy="28.3524" r="16.2479" fill="white"/>
</g>
<path d="M18.2822 23.1299L26.6963 32.1243" stroke="black" stroke-opacity="0.3" stroke-width="2.3551"/>
<path d="M38.0102 19.6482L33.9482 30.6735" stroke="black" stroke-opacity="0.3" stroke-width="2.3551"/>
<circle cx="31.3367" cy="34.4456" r="18.8592" stroke="black" stroke-opacity="0.3" stroke-width="2.3551"/>
<path d="M35.3829 13.4047C34.905 13.5602 34.4652 13.8073 34.0742 14.0875C33.074 14.8044 33.169 16.258 34.0392 17.1282L37.0298 20.1188C37.4715 20.5605 38.0705 20.8086 38.6951 20.8086H40.587C41.8877 20.8086 42.9383 19.7207 42.4117 18.5314C41.8165 17.1873 40.8434 16.0058 40.1458 15.1828C39.8861 14.8764 39.5538 14.6399 39.1789 14.4957L36.5507 13.4849C36.1756 13.3406 35.765 13.2803 35.3829 13.4047Z" fill="#2C2D2E" stroke="#2C2D2E" stroke-width="1.17755"/>
<path d="M20.8958 16.9852L20.041 16.6744C19.6672 16.5385 19.2502 16.6004 18.932 16.839L17.2404 18.1077C17.161 18.1673 17.0894 18.2366 17.0274 18.3141L14.8995 20.974C14.8333 21.0568 14.7775 21.1477 14.7402 21.247C14.4496 22.0196 14.3389 23.0766 14.3225 24.1183C14.3055 25.199 15.9661 25.8168 16.9434 25.3551C17.4894 25.0972 18.0538 24.8905 18.5711 24.7557C19.2004 24.5917 19.7422 24.0502 19.8759 23.4137C20.151 22.1041 20.792 20.4177 21.5479 19.1073C21.9783 18.3611 21.7055 17.2796 20.8958 16.9852Z" fill="#2C2D2E" stroke="#2C2D2E" stroke-width="1.17755"/>
<path d="M38.0068 35.8962H46.4209" stroke="black" stroke-opacity="0.3" stroke-width="2.3551"/>
<path d="M45.844 40.2481L45.3909 36.8502C45.3094 36.2386 45.4834 35.6264 45.7882 35.0899C47.4421 32.1783 47.8749 27.5641 47.8749 25.4509L50.4862 35.3157L45.844 40.2481Z" fill="#2C2D2E" stroke="#2C2D2E" stroke-width="1.17755"/>
<path d="M32.7861 41.6992L34.2368 47.502" stroke="black" stroke-opacity="0.3" stroke-width="2.3551"/>
<path d="M33.3836 46.942C31.661 47.7547 28.24 48.4906 26.6943 48.6623L35.3986 49.8229L42.0718 44.6003C39.9938 45.8471 36.5981 46.4118 34.591 46.5858C34.1698 46.6223 33.766 46.7616 33.3836 46.942Z" fill="#2C2D2E" stroke="#2C2D2E" stroke-width="1.17755"/>
<path d="M25.2456 38.217L18.2822 40.8283" stroke="black" stroke-opacity="0.3" stroke-width="2.3551"/>
<path d="M19.5158 45.0904L18.797 41.7386C18.6676 41.1354 18.3022 40.613 17.8062 40.246C15.2116 38.3262 12.9297 35.5265 12.6158 31.8438L13.4826 42.0115L19.5158 45.0904Z" fill="#2C2D2E" stroke="#2C2D2E" stroke-width="1.17755"/>
<path d="M24.8551 37.0606L25.3411 32.686C25.455 31.6613 26.2221 30.8298 27.2343 30.6339L32.8868 29.5398C33.8692 29.3497 34.8645 29.8011 35.3686 30.6654L37.6969 34.6568C38.2253 35.5625 38.0912 36.7084 37.3681 37.4676L33.9148 41.0935C33.2362 41.8061 32.1861 42.0216 31.2817 41.634L26.268 39.4853C25.3143 39.0766 24.7405 38.0918 24.8551 37.0606Z" fill="#2C2D2E" stroke="#2C2D2E" stroke-width="1.17755"/>
</g>
</g>
<defs>
<filter id="filter0_i" x="0" y="0.788818" width="60.9296" height="60.9296" filterUnits="userSpaceOnUse" color-interpolation-filters="sRGB">
<feFlood flood-opacity="0" result="BackgroundImageFix"/>
<feBlend mode="normal" in="SourceGraphic" in2="BackgroundImageFix" result="shape"/>
<feColorMatrix in="SourceAlpha" type="matrix" values="0 0 0 0 0 0 0 0 0 0 0 0 0 0 0 0 0 0 127 0" result="hardAlpha"/>
<feOffset/>
<feGaussianBlur stdDeviation="2.3551"/>
<feComposite in2="hardAlpha" operator="arithmetic" k2="-1" k3="1"/>
<feColorMatrix type="matrix" values="0 0 0 0 1 0 0 0 0 1 0 0 0 0 1 0 0 0 0.25 0"/>
<feBlend mode="normal" in2="shape" result="effect1_innerShadow"/>
</filter>
<filter id="filter1_f" x="3.63623" y="4.42481" width="53.6577" height="53.6577" filterUnits="userSpaceOnUse" color-interpolation-filters="sRGB">
<feFlood flood-opacity="0" result="BackgroundImageFix"/>
<feBlend mode="normal" in="SourceGraphic" in2="BackgroundImageFix" result="shape"/>
<feGaussianBlur stdDeviation="4.7102" result="effect1_foregroundBlur"/>
</filter>
<filter id="filter2_f" x="-19.8472" y="-19.0581" width="95.9816" height="95.9816" filterUnits="userSpaceOnUse" color-interpolation-filters="sRGB">
<feFlood flood-opacity="0" result="BackgroundImageFix"/>
<feBlend mode="normal" in="SourceGraphic" in2="BackgroundImageFix" result="shape"/>
<feGaussianBlur stdDeviation="14.1306" result="effect1_foregroundBlur"/>
</filter>
<filter id="filter3_f" x="-16.9458" y="-16.1567" width="89.0182" height="89.0182" filterUnits="userSpaceOnUse" color-interpolation-filters="sRGB">
<feFlood flood-opacity="0" result="BackgroundImageFix"/>
<feBlend mode="normal" in="SourceGraphic" in2="BackgroundImageFix" result="shape"/>
<feGaussianBlur stdDeviation="14.1306" result="effect1_foregroundBlur"/>
</filter>
<filter id="filter4_f" x="-16.9458" y="-16.1567" width="89.0182" height="89.0182" filterUnits="userSpaceOnUse" color-interpolation-filters="sRGB">
<feFlood flood-opacity="0" result="BackgroundImageFix"/>
<feBlend mode="normal" in="SourceGraphic" in2="BackgroundImageFix" result="shape"/>
<feGaussianBlur stdDeviation="14.1306" result="effect1_foregroundBlur"/>
</filter>
</defs>
</svg>
